Division,WeightClassKg,Place,Name,Team,BodyweightKg,Best3SquatKg,Best3BenchKg,Best3DeadliftKg,TotalKg,Equipment,Event,Sex
Boys,51.71,1,Bryan McNeil,Rogers,43.82,88.45,49.9,111.13,249.48,Single-ply,SBD,M
Boys,51.71,2,Michael Marullo,Georgetown East View,51.35,97.52,54.43,97.52,249.48,Single-ply,SBD,M
Boys,55.79,1,Davion Aldridge,Hutto,55.43,161.03,92.99,183.7,437.72,Single-ply,SBD,M
Boys,55.79,2,Isaiah Mesa,Taylor,55.16,129.27,99.79,158.76,387.82,Single-ply,SBD,M
Boys,55.79,3,Owen Mallard,Georgetown,54.07,106.59,56.7,120.2,283.5,Single-ply,SBD,M
Boys,55.79,4,Chase Harwell,Salado,53.8,104.33,52.16,108.86,265.35,Single-ply,SBD,M
Boys,59.87,1,Hector Jaramillo,Franklin,56.15,167.83,90.72,149.69,408.23,Single-ply,SBD,M
Boys,59.87,2,Jesse Barron,Hutto,59.15,136.08,72.57,158.76,367.41,Single-ply,SBD,M
Boys,59.87,3,Jacob Powell,Little River Academy,58.11,127.01,70.31,151.95,349.27,Single-ply,SBD,M
Boys,59.87,4,Alex Lade,Georgetown East View,59.69,113.4,81.65,142.88,337.93,Single-ply,SBD,M
Boys,59.87,5,Holden Suarez,Bastrop Cedar Creek,59.6,122.47,65.77,117.93,306.17,Single-ply,SBD,M
Boys,59.87,6,Noah McVicker,Lago Vista,59.24,115.67,56.7,124.74,297.1,Single-ply,SBD,M
Boys,59.87,7,Callahan Sherrod,Waco Reicher Catholic,59.42,104.33,56.7,124.74,285.76,Single-ply,SBD,M
Boys,59.87,8,Chris Guerra,Georgetown East View,56.79,90.72,74.84,117.93,283.5,Single-ply,SBD,M
Boys,59.87,9,Gavin Smith #2,Little River Academy,58.33,104.33,61.23,115.67,281.23,Single-ply,SBD,M
Boys,67.13,DQ,Ray Hernandez,Bastrop Cedar Creek,59.96,127.01,,,,Single-ply,SBD,M
Boys,59.87,DQ,Tony Steinbach,Georgetown,59.87,,,,,Single-ply,SBD,M
Boys,67.13,1,Lorenzo Sanchez,Taylor,62.69,183.7,106.59,195.04,485.34,Single-ply,SBD,M
Boys,74.84,2,Kaden Trice,Salado,67.31,183.7,99.79,170.1,453.59,Single-ply,SBD,M
Boys,67.13,3,Tanner Bailey,Waco Reicher Catholic,65.23,151.95,74.84,199.58,426.38,Single-ply,SBD,M
Boys,67.13,4,Brandon Batot,Bastrop,63.41,176.9,83.91,158.76,419.57,Single-ply,SBD,M
Boys,74.84,5,Coby Chambliss,Salado,67.22,170.1,92.99,156.49,419.57,Single-ply,SBD,M
Boys,74.84,6,Caden Forisha,Hutto,67.22,142.88,88.45,183.7,415.04,Single-ply,SBD,M
Boys,67.13,7,Danny Ronglie,Little River Academy,66.81,151.95,79.38,167.83,399.16,Single-ply,SBD,M
Boys,67.13,8,Peyton Tuggle,Bastrop Cedar Creek,65.86,158.76,81.65,149.69,390.09,Single-ply,SBD,M
Boys,67.13,9,Clay Stamper,Lago Vista,63.96,136.08,77.11,149.69,362.87,Single-ply,SBD,M
Boys,67.13,10,Cade Depoy,Salado,65.05,127.01,83.91,142.88,353.8,Single-ply,SBD,M
Boys,67.13,11,Connor Reighley,Lago Vista,61.78,120.2,65.77,133.81,319.78,Single-ply,SBD,M
Boys,67.13,12,Jay Simon,Georgetown,63.32,104.33,70.31,127.01,301.64,Single-ply,SBD,M
Boys,67.13,13,Colton Vansa,Little River Academy,66.81,108.86,72.57,120.2,301.64,Single-ply,SBD,M
Boys,67.13,14,Tyler Doramas,Georgetown,66.95,106.59,74.84,120.2,301.64,Single-ply,SBD,M
Boys,67.13,15,Brodie Sparkman,Georgetown,60.42,111.13,58.97,120.2,290.3,Single-ply,SBD,M
Boys,67.13,16,Dylan Kurz,Cameron Yoe,60.96,108.86,54.43,127.01,290.3,Single-ply,SBD,M
Boys,67.13,17,Daniel Kelso,Lago Vista,61.33,99.79,63.5,113.4,276.69,Single-ply,SBD,M
Boys,67.13,18,Luke Whiteley,Little River Academy,66.22,90.72,63.5,113.4,267.62,Single-ply,SBD,M
Boys,67.13,19,Alex Aguillon,Cameron Yoe,60.78,90.72,54.43,113.4,258.55,Single-ply,SBD,M
Boys,67.13,DQ,Hayden Kinslow,Georgetown,67.13,,,,,Single-ply,SBD,M
Boys,67.13,DQ,Steven Dees,Rogers,67.13,,,,,Single-ply,SBD,M
Boys,82.1,1,Roy Ward,Waco Reicher Catholic,75.02,222.26,124.74,192.78,539.77,Single-ply,SBD,M
Boys,74.84,2,Bryce Williams,Little River Academy,73.98,208.65,102.06,210.92,521.63,Single-ply,SBD,M
Boys,74.84,3,Justis Owens,Hutto,72.3,204.12,102.06,201.85,508.02,Single-ply,SBD,M
Boys,74.84,4,Travis Stone,Rogers,70.58,195.04,108.86,195.04,498.95,Single-ply,SBD,M
Boys,74.84,5,Ryan Hill #1,Lago Vista,70.4,183.7,106.59,183.7,474,Single-ply,SBD,M
Boys,74.84,6,Hunter Douzat,Little River Academy,69.9,172.37,111.13,183.7,467.2,Single-ply,SBD,M
Boys,74.84,7,Jacob Carpeno,Lago Vista,74.48,183.7,92.99,188.24,464.93,Single-ply,SBD,M
Boys,74.84,8,Derek Camero,Hutto,72.3,167.83,95.25,195.04,458.13,Single-ply,SBD,M
Boys,74.84,9,Cody Patterson,Bastrop Cedar Creek,74.84,165.56,111.13,176.9,453.59,Single-ply,SBD,M
Boys,74.84,10,Anthony Ortegon,Georgetown East View,68.04,165.56,102.06,183.7,451.32,Single-ply,SBD,M
Boys,74.84,11,Logan Hager,Georgetown,71.94,165.56,102.06,181.44,449.06,Single-ply,SBD,M
Boys,74.84,12,Dalton Thomas,Bastrop,74.3,183.7,95.25,170.1,449.06,Single-ply,SBD,M
Boys,74.84,13,Tyler Stairs,Salado,74.66,174.63,92.99,156.49,424.11,Single-ply,SBD,M
Boys,74.84,14,Gabriel Felan,Bastrop Cedar Creek,74.84,158.76,92.99,158.76,410.5,Single-ply,SBD,M
Boys,74.84,15,Tristan Moore,Franklin,71.49,142.88,97.52,136.08,376.48,Single-ply,SBD,M
Boys,74.84,16,Andrew Ramstedt,Little River Academy,73.98,149.69,83.91,142.88,376.48,Single-ply,SBD,M
Boys,74.84,17,Luke Ratliff,Waco Reicher Catholic,73.57,131.54,95.25,140.61,367.41,Single-ply,SBD,M
Boys,74.84,18,Andrew McVeigh,Little River Academy,74.43,136.08,88.45,142.88,367.41,Single-ply,SBD,M
Boys,74.84,19,John Aynesworth,Waco Reicher Catholic,70.76,131.54,86.18,145.15,362.87,Single-ply,SBD,M
Boys,74.84,20,Cooper Womack,Salado,74.48,147.42,63.5,147.42,358.34,Single-ply,SBD,M
Boys,74.84,21,Moe Bryson,Lago Vista,68.86,124.74,72.57,156.49,353.8,Single-ply,SBD,M
Boys,74.84,22,Vincent Wilson,Rogers,73.39,120.2,102.06,120.2,342.46,Single-ply,SBD,M
Boys,74.84,23,Cortney Young #2,Rogers,69.22,129.27,74.84,136.08,340.19,Single-ply,SBD,M
Boys,74.84,24,McMahon Taylor,Georgetown,67.4,127.01,81.65,127.01,335.66,Single-ply,SBD,M
Boys,74.84,25,Eric Grasso,Georgetown,72.48,120.2,70.31,145.15,335.66,Single-ply,SBD,M
Boys,74.84,26,Titus Lewis,Cameron Yoe,73.75,120.2,68.04,142.88,331.12,Single-ply,SBD,M
Boys,74.84,27,Justin Lanning,Lago Vista,69.67,102.06,77.11,129.27,308.44,Single-ply,SBD,M
Boys,74.84,28,Nick Rangel,Cameron Yoe,74.75,106.59,77.11,111.13,294.84,Single-ply,SBD,M
Boys,74.84,29,Landon Anderson,Cameron Yoe,70.31,95.25,68.04,106.59,269.89,Single-ply,SBD,M
Boys,74.84,DQ,Andrew Olsen,Georgetown,74.84,,,,,Single-ply,SBD,M
Boys,89.81,1,Everado Araujo,Taylor,82.28,238.14,140.61,231.33,610.08,Single-ply,SBD,M
Boys,82.1,2,Marco Castro,Waco Reicher Catholic,79.11,238.14,129.27,229.06,596.47,Single-ply,SBD,M
Boys,82.1,3,Allen Scott,Waco Reicher Catholic,78.2,222.26,136.08,226.8,585.13,Single-ply,SBD,M
Boys,82.1,4,Ty Hill,Georgetown,81.47,190.51,115.67,204.12,510.29,Single-ply,SBD,M
Boys,82.1,5,Zach Smith #11,Little River Academy,79.2,195.04,113.4,199.58,508.02,Single-ply,SBD,M
Boys,82.1,6,Rodney Rogers,Franklin,79.38,195.04,131.54,181.44,508.02,Single-ply,SBD,M
Boys,82.1,7,Cole Ballard,Hutto,76.11,183.7,104.33,185.97,474,Single-ply,SBD,M
Boys,82.1,8,Hayden Ebeling,Salado,81.01,165.56,106.59,183.7,455.86,Single-ply,SBD,M
Boys,82.1,9,Eduardo Bautista,Cameron Yoe,81.1,167.83,113.4,158.76,439.98,Single-ply,SBD,M
Boys,89.81,10,Antonio Luna,Hutto,82.28,158.76,95.25,185.97,439.98,Single-ply,SBD,M
Boys,89.81,11,Austin Naiser,Georgetown East View,82.28,158.76,102.06,154.22,415.04,Single-ply,SBD,M
Boys,82.1,12,Rigo Ruiz,Hutto,80.2,147.42,81.65,181.44,410.5,Single-ply,SBD,M
Boys,82.1,13,Aaron Corona,Georgetown East View,82.01,142.88,102.06,163.29,408.23,Single-ply,SBD,M
Boys,82.1,14,Alejandro Rangel,Taylor,79.74,142.88,104.33,154.22,401.43,Single-ply,SBD,M
Boys,82.1,15,Zac Menkin,Lago Vista,80.74,136.08,83.91,165.56,385.55,Single-ply,SBD,M
Boys,82.1,16,Iain McVeigh,Little River Academy,78.74,117.93,83.91,136.08,337.93,Single-ply,SBD,M
Boys,82.1,17,James Garcia,Bastrop Cedar Creek,78.38,120.2,81.65,127.01,328.85,Single-ply,SBD,M
Boys,82.1,DQ,Joseph Sampson,Salado,76.48,158.76,,,,Single-ply,SBD,M
Boys,89.81,1,Chase Heffernan,Georgetown,85.46,190.51,122.47,210.92,523.9,Single-ply,SBD,M
Boys,89.81,2,Chris Hatch,Taylor,88.45,190.51,142.88,190.51,523.9,Single-ply,SBD,M
Boys,89.81,3,Bobby Graham,Franklin,89.27,183.7,129.27,181.44,494.42,Single-ply,SBD,M
Boys,89.81,4,Russell Payne,Bastrop,85.55,179.17,120.2,170.1,469.47,Single-ply,SBD,M
Boys,89.81,5,Ryan Perry,Bastrop,88.54,183.7,108.86,170.1,462.66,Single-ply,SBD,M
Boys,89.81,6,Isaac Villanueva,Taylor,83.73,188.24,95.25,176.9,460.4,Single-ply,SBD,M
Boys,89.81,7,Tate Hill,Salado,82.46,161.03,90.72,190.51,442.25,Single-ply,SBD,M
Boys,89.81,8,Jason Flynn,Salado,86.64,167.83,97.52,151.95,417.3,Single-ply,SBD,M
Boys,89.81,9,Dylan Syms,Taylor,86.36,149.69,92.99,172.37,415.04,Single-ply,SBD,M
Boys,89.81,10,Blake Carr,Lago Vista,89.18,147.42,102.06,165.56,415.04,Single-ply,SBD,M
Boys,89.81,11,Nicholas Whitley,Taylor,89.81,136.08,92.99,165.56,394.63,Single-ply,SBD,M
Boys,89.81,12,Jesus Oranday,Taylor,85.18,138.35,97.52,145.15,381.02,Single-ply,SBD,M
Boys,89.81,13,Gabe Kane,Salado,88.18,136.08,77.11,165.56,378.75,Single-ply,SBD,M
Boys,89.81,14,Kase Reigan,Waco Reicher Catholic,89.18,136.08,86.18,136.08,358.34,Single-ply,SBD,M
Boys,89.81,15,Martin Navarrete,Taylor,85.82,117.93,65.77,122.47,306.17,Single-ply,SBD,M
Boys,89.81,16,Diego Contreras,Franklin,89.36,117.93,61.23,102.06,281.23,Single-ply,SBD,M
Boys,89.81,DQ,Darren DiDanato,Lago Vista,84.91,,,,,Single-ply,SBD,M
Boys,89.81,DQ,Derick Juptner,Georgetown,89.81,,,,,Single-ply,SBD,M
Boys,99.79,1,Bryson Jones,Rogers,93.53,235.87,156.49,238.14,630.49,Single-ply,SBD,M
Boys,99.79,2,Joseph Rodriguez,Bastrop Cedar Creek,95.98,210.92,131.54,226.8,569.26,Single-ply,SBD,M
Boys,99.79,3,Lance Spakes,Salado,97.16,199.58,111.13,170.1,480.81,Single-ply,SBD,M
Boys,99.79,4,Cody Carron,Lago Vista,90.45,174.63,129.27,163.29,467.2,Single-ply,SBD,M
Boys,99.79,5,Jaedon McGee,Bastrop,90.99,156.49,106.59,149.69,412.77,Single-ply,SBD,M
Boys,99.79,6,Joshua Briggs,Taylor,91.35,156.49,63.5,163.29,383.29,Single-ply,SBD,M
Boys,99.79,7,Leo Ramirez,Georgetown East View,97.61,142.88,81.65,142.88,367.41,Single-ply,SBD,M
Boys,99.79,8,Jovany Araujo,Georgetown East View,96.71,127.01,70.31,161.03,358.34,Single-ply,SBD,M
Boys,99.79,9,Jared Grooms,Waco Reicher Catholic,92.44,131.54,79.38,136.08,347,Single-ply,SBD,M
Boys,99.79,10,Kavan Dooley,Franklin,94.8,136.08,70.31,136.08,342.46,Single-ply,SBD,M
Boys,99.79,11,David Mata,Georgetown,93.71,124.74,83.91,104.33,312.98,Single-ply,SBD,M
Boys,99.79,DQ,Brandon Bruce,Rogers,92.53,242.67,,,,Single-ply,SBD,M
Boys,99.79,DQ,Zach Solano,Rogers,99.79,,,,,Single-ply,SBD,M
Boys,99.79,DQ,Michael Boyd,Georgetown,99.79,,,,,Single-ply,SBD,M
Boys,109.77,1,Tomas Salomon,Cameron Yoe,109.77,235.87,120.2,208.65,564.72,Single-ply,SBD,M
Boys,109.77,2,Pablo Rodriguez,Cameron Yoe,109.13,183.7,113.4,183.7,480.81,Single-ply,SBD,M
Boys,109.77,3,Dameion Cwazos,Georgetown,100.52,188.24,113.4,147.42,449.06,Single-ply,SBD,M
Boys,109.77,4,Chris Miranda,Bastrop Cedar Creek,105.14,167.83,88.45,142.88,399.16,Single-ply,SBD,M
Boys,109.77,5,Chad Patjeska,Little River Academy,108,142.88,81.65,161.03,385.55,Single-ply,SBD,M
Boys,109.77,6,Adrian Lewis,Cameron Yoe,108.14,136.08,95.25,140.61,371.95,Single-ply,SBD,M
Boys,109.77,7,Levi Libhart,Rogers,100.97,142.88,92.99,129.27,365.14,Single-ply,SBD,M
Boys,109.77,DQ,Alex Wilson #2,Georgetown,107.14,140.61,,,,Single-ply,SBD,M
Boys,109.77,DQ,Jameson White,Georgetown,109.77,,,,,Single-ply,SBD,M
Boys,124.74,1,Tyler Thompson,Rogers,122.47,240.4,158.76,226.8,625.96,Single-ply,SBD,M
Boys,124.74,2,Aaron Johnson #15,Georgetown,117.75,238.14,145.15,195.04,578.33,Single-ply,SBD,M
Boys,124.74,3,O'neal Patterson,Hutto,122.74,226.8,154.22,188.24,569.26,Single-ply,SBD,M
Boys,124.74,4,Justin Paul,Hutto,111.67,208.65,124.74,226.8,560.19,Single-ply,SBD,M
Boys,124.74,5,John Goode,Bastrop,121.74,201.85,122.47,172.37,496.68,Single-ply,SBD,M
Boys,124.74,6,Caleb Madole,Georgetown East View,122.11,174.63,104.33,199.58,478.54,Single-ply,SBD,M
Boys,124.74,7,Marty Rodriguez,Hutto,123.65,195.04,90.72,188.24,474,Single-ply,SBD,M
Boys,124.74,8,Bailey Dees,Bastrop Cedar Creek,121.47,174.63,92.99,165.56,433.18,Single-ply,SBD,M
Boys,124.74,9,Chase Travis,Georgetown,119.48,147.42,90.72,158.76,396.89,Single-ply,SBD,M
Boys,124.74,10,Dortavis Lewis,Cameron Yoe,124.74,136.08,88.45,138.35,362.87,Single-ply,SBD,M
Boys,124.74,11,Kellan Anderson,Rogers,111.77,122.47,72.57,145.15,340.19,Single-ply,SBD,M
Boys,124.74,12,Brian McDonald,Cameron Yoe,124.47,131.54,74.84,122.47,328.85,Single-ply,SBD,M
Boys,124.74,DQ,Blake Johnson,Franklin,124.1,278.96,117.93,,,Single-ply,SBD,M
Boys,124.74,DQ,John Paul Arias,Bastrop Cedar Creek,124.74,,,,,Single-ply,SBD,M
Boys,124.74+,1,Grayson Eaton,Little River Academy,125.19,290.3,174.63,240.4,705.34,Single-ply,SBD,M
Boys,124.74+,2,Rene Loya,Bastrop,129.82,242.67,147.42,215.46,605.55,Single-ply,SBD,M
Boys,124.74+,3,Lee Hall,Bastrop Cedar Creek,148.23,156.49,88.45,140.61,385.55,Single-ply,SBD,M
