Place,Name,BirthYear,Country,BodyweightKg,Squat1Kg,Squat2Kg,Squat3Kg,Best3SquatKg,Bench1Kg,Bench2Kg,Bench3Kg,Best3BenchKg,Deadlift1Kg,Deadlift2Kg,Deadlift3Kg,Best3DeadliftKg,TotalKg,WeightClassKg,Division,Event,Sex,Equipment
1,Sergey Fedosienko,1982,Russia,58.63,205,217.5,225,225,155,165,-170,165,240,260,274,274,664,59,Open,SBD,M,Raw
2,Franklin León,1983,Ecuador,58.83,205,217.5,225,225,135,142.5,-147.5,142.5,215,225,235,235,602.5,59,Open,SBD,M,Raw
3,Evgeniy Mukhomedyanov,1981,Russia,58.52,185,200,212.5,212.5,125,130,135,135,210,222.5,-227.5,222.5,570,59,Open,SBD,M,Raw
4,Mohamed Lakehal,1982,Algeria,58.96,210,220,227.5,227.5,97.5,107.5,-112.5,107.5,-225,-225,225,225,560,59,Open,SBD,M,Raw
5,Dariusz Wszoła,1978,Poland,58.75,200,210,-215,210,145,150,152.5,152.5,195,-202.5,-202.5,195,557.5,59,Open,SBD,M,Raw
6,Takaharu Ebihara,1980,Japan,58.64,-180,-180,180,180,130,135,-140,135,200,210,215,215,530,59,Open,SBD,M,Raw
7,Derek Ng,1997,Canada,58.94,157.5,165,170,170,90,95,97.5,97.5,247.5,260,-274.5,260,527.5,59,Open,SBD,M,Raw
8,Siang Too Chin,1991,Singapore,57.6,170,180,-185,180,105,112.5,-115,112.5,200,210,215,215,507.5,59,Open,SBD,M,Raw
9,Long Gee Ci,1988,Malaysia,58.53,147.5,-155,-155,147.5,107.5,-112.5,112.5,112.5,205,212.5,217.5,217.5,477.5,59,Open,SBD,M,Raw
DQ,Matthew Arremony,1997,USA,58.78,-180,-180,-180,,115,-122.5,122.5,122.5,245,-262.5,-262.5,245,,59,Open,SBD,M,Raw
1,Charles Okpoko,1995,USA,65.89,240,253,-259,253,155,162.5,167.5,167.5,247.5,260,267.5,267.5,688,66,Open,SBD,M,Raw
2,Sergey Gladkikh,1989,Russia,65.99,240,247.5,-253.5,247.5,150,157.5,-162.5,157.5,255,265,-285,265,670,66,Open,SBD,M,Raw
3,Antti Savolainen,1978,Finland,65.43,207.5,217.5,222.5,222.5,150,155,-160,155,265,275,280,280,657.5,66,Open,SBD,M,Raw
4,Hassan El Belghiti,1975,France,65.61,220,-227.5,-227.5,220,132.5,137.5,-140,137.5,287.5,297.5,-302.5,297.5,655,66,Open,SBD,M,Raw
5,Stephen Cascioli,1991,Canada,65.93,227.5,237.5,245,245,145,150,152.5,152.5,240,252.5,-262.5,252.5,650,66,Open,SBD,M,Raw
6,Tsung-Ting Hsieh,1982,Taiwan,65.66,215,230,235,235,150,160,-165,160,250,-270,-270,250,645,66,Open,SBD,M,Raw
7,Daniel Remulla,1991,Canada,65.84,205,215,220,220,160,165,167.5,167.5,235,247.5,-252.5,247.5,635,66,Open,SBD,M,Raw
8,Alexander Kolbin,1987,Russia,65.88,230,-242.5,-242.5,230,145,150,-155,150,250,-265,-265,250,630,66,Open,SBD,M,Raw
9,Kavwa Sichone,1989,New Zealand,65.8,210,-215,215,215,157.5,-162.5,-162.5,157.5,225,230,-235,230,602.5,66,Open,SBD,M,Raw
10,Amir Asadollah Zadeh Rezaabadi,1990,Iran,65.46,195,205,-210,205,125,132.5,-137.5,132.5,245,252.5,-265,252.5,590,66,Open,SBD,M,Raw
11,Hiroki Ikegami,1991,Japan,65,190,200,205,205,130,137.5,,137.5,237.5,-245,-245,237.5,580,66,Open,SBD,M,Raw
DQ,Odon Bayaraa,1980,Mongolia,64.26,-185,-185,185,185,137.5,-140,-142.5,137.5,-235,-235,-235,,,66,Open,SBD,M,Raw
1,Taylor Atwood,1988,USA,73.78,245,262.5,275.5,275.5,180,-190,190,190,275,292.5,-310,292.5,758,74,Open,SBD,M,Raw
2,Clinton Lee #1,1993,Singapore,73.48,255,-262.5,-262.5,255,162.5,167.5,170,170,275,-285,287.5,287.5,712.5,74,Open,SBD,M,Raw
3,Yoshihiro Higa,1991,Japan,73.53,262.5,272.5,276,276,140,147.5,152.5,152.5,240,272.5,-287.5,272.5,701,74,Open,SBD,M,Raw
4,John Strachan,1988,New Zealand,73.34,220,235,-242.5,235,152.5,160,162.5,162.5,260,272.5,280,280,677.5,74,Open,SBD,M,Raw
5,Sergey Negara,1978,Russia,73.85,225,232.5,-237.5,232.5,152.5,157.5,162.5,162.5,267.5,282.5,-287.5,282.5,677.5,74,Open,SBD,M,Raw
6,Christopher Wong,1985,UK,72.63,227.5,235,240,240,130,137.5,142.5,142.5,260,275,285,285,667.5,74,Open,SBD,M,Raw
7,Billal Aouimer,1993,Algeria,73.35,-222.5,222.5,235,235,130,135,140,140,275,292.5,-300,292.5,667.5,74,Open,SBD,M,Raw
8,André Garcia #1,1982,Brazil,73.35,225,235,242.5,242.5,160,165,-167.5,165,252.5,-262.5,-262.5,252.5,660,74,Open,SBD,M,Raw
9,Krystan Hosein,1997,Trinidad and Tobago,73.88,215,-230,230,230,135,140,-145,140,260,275,285,285,655,74,Open,SBD,M,Raw
10,James Duff,1992,UK,73.97,232.5,245,250,250,132.5,137.5,-142.5,137.5,255,267.5,-282.5,267.5,655,74,Open,SBD,M,Raw
11,Urban Mur,1993,Slovenia,73.87,215,227.5,235,235,147.5,155,-160,155,225,245,-250,245,635,74,Open,SBD,M,Raw
12,Markus Köberle,1993,Germany,73.69,210,220,-225,220,140,145,-147.5,145,237.5,262.5,-270,262.5,627.5,74,Open,SBD,M,Raw
13,Yi-Heng Wu,1989,Taiwan,72.45,185,195,205,205,110,115,120,120,275,-285,287.5,287.5,612.5,74,Open,SBD,M,Raw
14,Pedro Lins,1993,Brazil,73.39,215,-225,225,225,125,130,132.5,132.5,230,240,247.5,247.5,605,74,Open,SBD,M,Raw
15,Ming-Hui Lin,1983,Taiwan,73.43,255,-262.5,-262.5,255,110,-115,-115,110,240,-260,-260,240,605,74,Open,SBD,M,Raw
16,Jose Barrera Godomar,1991,Peru,73.6,180,-192.5,192.5,192.5,130,135,-137.5,135,-262.5,262.5,-265,262.5,590,74,Open,SBD,M,Raw
17,Sven Sigrist,1988,Switzerland,72.97,187.5,200,210,210,125,132.5,-140,132.5,180,200,-225,200,542.5,74,Open,SBD,M,Raw
DQ,Amit Kumar,1989,India,70.96,-212.5,-212.5,-212.5,,,,,,,,,,,74,Open,SBD,M,Raw
DQ,Mynganbaatar Balt,1986,Mongolia,73.34,-230,-230,-230,,-140,-140,-140,,270,282.5,-292.5,282.5,,74,Open,SBD,M,Raw
1,Brett Gibbs,1991,New Zealand,82.62,275,290,299,299,200,209,214,214,290,305,317.5,317.5,830.5,83,Open,SBD,M,Raw
2,Russel Orhii,1994,USA,82.77,275,290,298.5,298.5,177.5,185,190,190,285,295,-300,295,783.5,83,Open,SBD,M,Raw
3,Owen Hubbard,1992,UK,82.49,255,270,277.5,277.5,200,209.5,214.5,214.5,262.5,275,285,285,777,83,Open,SBD,M,Raw
4,Fatah Toubal,1983,Algeria,82.07,275,287.5,-302.5,287.5,170,177.5,182.5,182.5,295,305,-307.5,305,775,83,Open,SBD,M,Raw
5,Alexey Kuzmin,1982,Russia,82.62,265,-275,-275,265,175,182.5,185,185,305,317.5,-327.5,317.5,767.5,83,Open,SBD,M,Raw
6,Adam Jones #1,1987,Singapore,82.71,-237.5,237.5,255,255,125,135,140,140,275,292.5,302.5,302.5,697.5,83,Open,SBD,M,Raw
7,Jakob Škarabot,1991,Slovenia,81.43,237.5,252.5,-257.5,252.5,130,137.5,142.5,142.5,270,287.5,292.5,292.5,687.5,83,Open,SBD,M,Raw
8,Jurins Kengamu,1988,UK,79.31,245,-252.5,252.5,252.5,142.5,147.5,152.5,152.5,270,280,-285,280,685,83,Open,SBD,M,Raw
9,Edgar Alfonso Orozco Ramirez,1988,Colombia,82.17,220,225,-227.5,225,170,177.5,180,180,265,-275,-275,265,670,83,Open,SBD,M,Raw
10,Jonathan Baptista,1988,South Africa,82.37,225,235,-242.5,235,157.5,165,-170,165,237.5,252.5,-267.5,252.5,652.5,83,Open,SBD,M,Raw
11,Joel Larter,1992,New Zealand,82.74,215,227.5,235,235,142.5,147.5,152.5,152.5,245,260,-267.5,260,647.5,83,Open,SBD,M,Raw
DQ,Saeid Sharifi Sedeh,1988,Iran,82.67,-235,235,-245,235,155,165,167.5,167.5,-255,,,,,83,Open,SBD,M,Raw
1,LS McClain,1978,USA,92.96,260,275,282.5,282.5,207.5,215,217.5,217.5,297.5,312.5,320,320,820,93,Open,SBD,M,Raw
2,Amar Kanane,1987,Algeria,92.57,310,326,330,330,172.5,175,177.5,177.5,305,-317.5,-322.5,305,812.5,93,Open,SBD,M,Raw
3,David Coimbra,1983,Brazil,92.64,272.5,287.5,-292.5,287.5,170,175,180,180,305,322.5,-352.5,322.5,790,93,Open,SBD,M,Raw
4,Walter Cariazo,1988,Canada,91.66,255,265,-270,265,172.5,180,187.5,187.5,305,322.5,-337.5,322.5,775,93,Open,SBD,M,Raw
5,André Midtby,1991,Norway,92.22,262.5,270,275,275,192.5,202.5,-207.5,202.5,292.5,-302.5,-312.5,292.5,770,93,Open,SBD,M,Raw
6,Hendrick Famutimi,1984,UK,91.86,240,252.5,262.5,262.5,160,170,172.5,172.5,305,-325,325,325,760,93,Open,SBD,M,Raw
7,Arthur Lynch,1992,Ireland,91.86,250,260,262.5,262.5,172.5,180,-182.5,180,285,-290,-290,285,727.5,93,Open,SBD,M,Raw
8,Niklas Jäggi,1987,Switzerland,91.38,230,242.5,250,250,152.5,162.5,165,165,275,290,305,305,720,93,Open,SBD,M,Raw
9,Dhanushka Kodikara,1992,Sri Lanka,92.93,240,242.5,-250,242.5,120,127.5,135,135,240,-250,-250,240,617.5,93,Open,SBD,M,Raw
DQ,Tarek Othman,1982,Egypt,89.92,-250,-250,-250,,140,160,-165,160,260,270,-280,270,,93,Open,SBD,M,Raw
1,Bryce Lewis,1987,USA,103.2,282.5,300,312.5,312.5,205,215,225.5,225.5,322.5,337.5,-350,337.5,875.5,105,Open,SBD,M,Raw
2,Garrett Blevins,1988,USA,104.04,305,320,-327.5,320,210,220,226,226,305,325,-342.5,325,871,105,Open,SBD,M,Raw
3,Krzysztof Wierzbicki,1990,Poland,102,-290,297.5,-307.5,297.5,190,197.5,200,200,365,-380,-380,365,862.5,105,Open,SBD,M,Raw
4,Bryce Krawczyk,1987,Canada,104.5,272.5,287.5,295,295,167.5,177.5,182.5,182.5,342.5,360,-387.5,360,837.5,105,Open,SBD,M,Raw
5,Barry Pigott,1991,Ireland,102.06,280,290,300,300,210,220,226.5,226.5,290,-300,-300,290,816.5,105,Open,SBD,M,Raw
6,Joshua Greenfield,1994,UK,104.71,305,-317.5,327.5,327.5,165,175,-180,175,272.5,290,305,305,807.5,105,Open,SBD,M,Raw
7,Yusuke Takeda,1985,Japan,104.46,275,295,-310,295,200,210,217.5,217.5,270,285,292.5,292.5,805,105,Open,SBD,M,Raw
8,Mostafa Yazdani Kachouei,1988,Iran,103.38,270,-282.5,282.5,282.5,145,150,-155,150,325,340,-352.5,340,772.5,105,Open,SBD,M,Raw
9,Tim Daniel Konertz,1989,Germany,104.15,260,270,-275,270,162.5,167.5,-172.5,167.5,305,317.5,-325,317.5,755,105,Open,SBD,M,Raw
10,Indika Paranagama,1986,Sri Lanka,103.64,260,270,-285,270,145,152.5,-157.5,152.5,260,-267.5,-267.5,260,682.5,105,Open,SBD,M,Raw
11,Patrick Wolf,1988,Switzerland,97.2,212.5,227.5,-237.5,227.5,137.5,145,152.5,152.5,245,265,-272.5,265,645,105,Open,SBD,M,Raw
DQ,Zalim Kuvambaev,1986,Kazakhstan,104.37,-300,-300,-300,,180,,,180,280,,,280,,105,Open,SBD,M,Raw
1,Erik Willis,1990,Canada,118.85,295,310,317.5,317.5,210,225,230,230,322.5,337.5,352.5,352.5,900,120,Open,SBD,M,Raw
2,Piotr Sadowski #1,1993,Poland,119.75,320,340,-345,340,210,217.5,220,220,320,340,-347.5,340,900,120,Open,SBD,M,Raw
3,Amandas Paulauskas,1987,Lithuania,118.98,-300,305,310,310,242.5,-250,250,250,320,-335,-340,320,880,120,Open,SBD,M,Raw
4,Mateusz Grzesik,1989,Poland,117.6,290,300,305,305,205,210,212.5,212.5,320,335,342.5,342.5,860,120,Open,SBD,M,Raw
5,Baruch Sekenofsky,1993,UK,119.85,310,320,330,330,-195,195,202.5,202.5,310,-320,-322.5,310,842.5,120,Open,SBD,M,Raw
6,Stanley Cocker,1992,New Zealand,117.29,290,307.5,-315,307.5,185,-192.5,192.5,192.5,300,325,-345,325,825,120,Open,SBD,M,Raw
7,Sofiane Belkesir,1984,France,113.64,-295,295,-305,295,207.5,212.5,-215,212.5,315,-332.5,-332.5,315,822.5,120,Open,SBD,M,Raw
8,Viktor Marynenko,1987,Ukraine,117.47,290,300,,300,190,195,,195,307.5,320,-340,320,815,120,Open,SBD,M,Raw
9,Paul-Johannes Heddrich,1991,Germany,111.89,265,282.5,287.5,287.5,167.5,-175,180,180,320,332.5,345,345,812.5,120,Open,SBD,M,Raw
10,Andreas Reiz,1984,Germany,115.71,290,302.5,-310,302.5,185,-190,-190,185,310,-317.5,322.5,322.5,810,120,Open,SBD,M,Raw
11,Richard Hozjan,1982,Australia,117.45,-270,-275,275,275,207.5,212.5,-217.5,212.5,292.5,305,315,315,802.5,120,Open,SBD,M,Raw
12,Michael Leitner,1994,Austria,118.28,260,277.5,-282.5,277.5,170,-175,175,175,290,315,320,320,772.5,120,Open,SBD,M,Raw
13,Matheus Costa,1991,Brazil,113.07,245,262.5,270,270,160,167.5,175,175,312.5,325,-335,325,770,120,Open,SBD,M,Raw
14,Colin Power,1982,Ireland,113.31,-260,260,270,270,172.5,177.5,182.5,182.5,282.5,295,302.5,302.5,755,120,Open,SBD,M,Raw
15,Vinicius Souza,1990,Brazil,119.22,257.5,275,282.5,282.5,175,180,-185,180,265,282.5,-287.5,282.5,745,120,Open,SBD,M,Raw
16,Ransilu Jayathilake,1986,Sri Lanka,118.84,275,285,-290,285,120,130,135,135,317.5,-325,-325,317.5,737.5,120,Open,SBD,M,Raw
17,Alexander Puerzel,1983,Austria,118.3,125,140,155,155,175,180,-182.5,180,250,275,300,300,635,120,Open,SBD,M,Raw
DQ,Oleksiy Vyshnytskyy,1981,Ukraine,112.74,310,320,327.5,327.5,-170,-170,-170,,330,345,-352.5,345,,120,Open,SBD,M,Raw
DQ,Joseph Whittaker,1985,New Zealand,118.85,-315,-315,-315,,,,,,,,,,,120,Open,SBD,M,Raw
DQ,Bi Gustave Fezan,1988,Ivory Coast,119.39,-350,-350,-350,,,,,,,,,,,120,Open,SBD,M,Raw
1,Ray Williams #1,1986,USA,189.2,-442.5,442.5,-478,442.5,222.5,232.5,242.5,242.5,355,377.5,398.5,398.5,1083.5,120+,Open,SBD,M,Raw
2,Kelly Branton,1986,Canada,172.5,-410,410,-427.5,410,255,265,-275,265,295,302.5,310,310,985,120+,Open,SBD,M,Raw
3,Siim Rast,1988,Estonia,183.05,325,335,-340,335,230,-235,235,235,335,347.5,-352.5,347.5,917.5,120+,Open,SBD,M,Raw
4,Ilyes Boughalem,1987,Algeria,154.52,-317.5,330,342.5,342.5,265,275,281.5,281.5,270,280,-300,280,904,120+,Open,SBD,M,Raw
5,Steve Ringoot,1989,Belgium,155.7,325,340,347.5,347.5,220,230,-235,230,-320,320,-330,320,897.5,120+,Open,SBD,M,Raw
6,Mehdi Mafi Gholami,1982,Iran,141.8,-342.5,-347.5,350,350,210,217.5,225,225,300,320,-347.5,320,895,120+,Open,SBD,M,Raw
7,Júlían J.K. Jóhannsson,1993,Iceland,162.56,305,325,-335,325,-195,195,205,205,330,365,-380,365,895,120+,Open,SBD,M,Raw
8,Jordan McLaughlin,1993,UK,140.61,330,-345,-347.5,330,205,215,220,220,310,320,-330,320,870,120+,Open,SBD,M,Raw
DQ,Jari Saario,1985,Finland,141.22,-325,-330,-330,,150,,,150,-340,347.5,-360,347.5,,120+,Open,SBD,M,Raw
1,Bodie LaCoe,2003,USA,52.3,130,135,142.5,142.5,70,75,77.5,77.5,172.5,190,201,201,421,53,Sub-Juniors,SBD,M,Raw
2,George Diers,2000,USA,52.96,130,140,145,145,62.5,67.5,72.5,72.5,150,155,157.5,157.5,375,53,Sub-Juniors,SBD,M,Raw
3,Dias Shakerkhan,2004,Kazakhstan,52.92,110,-117.5,117.5,117.5,70,75,-80,75,125,135,-145,135,327.5,53,Sub-Juniors,SBD,M,Raw
DQ,Masaya Yamada,2001,Japan,52.9,140,145,150,150,110,-115,-115,110,-200.5,-200.5,-200.5,,,53,Sub-Juniors,SBD,M,Raw
1,Junto Tsuchiya,2000,Japan,56.73,160,-170,-170,160,100,110,-117.5,110,170,180,185,185,455,59,Sub-Juniors,SBD,M,Raw
2,Kai Gajewiak,2000,UK,58.99,147.5,155,160,160,107.5,112.5,115,115,160,167.5,172.5,172.5,447.5,59,Sub-Juniors,SBD,M,Raw
3,Karimzhan Sadykov,2001,Kazakhstan,58.63,137.5,147.5,152.5,152.5,87.5,92.5,-97.5,92.5,177.5,185,187.5,187.5,432.5,59,Sub-Juniors,SBD,M,Raw
4,Mizuki Hamasuna,2000,Japan,58.03,135,142.5,-150,142.5,105,110,-112.5,110,165,172.5,-180,172.5,425,59,Sub-Juniors,SBD,M,Raw
5,Graham Payne-Reichert,2000,USA,58.91,160,167.5,170,170,70,77.5,-80,77.5,165,175,-185,175,422.5,59,Sub-Juniors,SBD,M,Raw
6,Hafi Abd Rashid Abdul Aniq,2000,Malaysia,58.75,105,110,115,115,-75,75,80,80,177.5,187.5,190,190,385,59,Sub-Juniors,SBD,M,Raw
1,Souleiman Turki,2000,France,65.98,-200,-200,200,200,107.5,-115,-115,107.5,-215,217.5,232.5,232.5,540,66,Sub-Juniors,SBD,M,Raw
2,Steven Gassert,2000,USA,65.25,180,185,187.5,187.5,132.5,140,142.5,142.5,170,182.5,187.5,187.5,517.5,66,Sub-Juniors,SBD,M,Raw
3,Bartosz Warszczuk,2001,Poland,65.61,175,182.5,-187.5,182.5,100,105,107.5,107.5,205,215,-230,215,505,66,Sub-Juniors,SBD,M,Raw
4,Shimpei Murase,2000,Japan,65.08,145,155,167.5,167.5,102.5,107.5,-112.5,107.5,185,195,-215,195,470,66,Sub-Juniors,SBD,M,Raw
5,Takahiro Kariya,2002,Japan,63.75,145,147.5,-160,147.5,85,95,-100,95,-185,190,-192.5,190,432.5,66,Sub-Juniors,SBD,M,Raw
6,Ben Herriott,2000,Canada,65.09,-150,150,157.5,157.5,90,95,100,100,155,165,-177.5,165,422.5,66,Sub-Juniors,SBD,M,Raw
7,Albert Stankevich,2002,Belarus,65.59,160,175,-182.5,175,85,90,92.5,92.5,152.5,-160,-160,152.5,420,66,Sub-Juniors,SBD,M,Raw
8,Philip Kim,2000,Singapore,63.99,157.5,-165,-165,157.5,-90,90,-92.5,90,150,160,-167.5,160,407.5,66,Sub-Juniors,SBD,M,Raw
1,Timur Kassenov,2000,Kazakhstan,73.33,200,207.5,212.5,212.5,130,135,137.5,137.5,240,247.5,255,255,605,74,Sub-Juniors,SBD,M,Raw
2,Evan Glasgold,2000,USA,73.31,190,197.5,205,205,130,135,140,140,215,227.5,237.5,237.5,582.5,74,Sub-Juniors,SBD,M,Raw
3,Dawid Król,2000,Poland,73.68,-200,200,205,205,140,150,-155.5,150,200,215,227.5,227.5,582.5,74,Sub-Juniors,SBD,M,Raw
4,Daniyar Shaukatov,2000,Kazakhstan,73.21,180,195,-202.5,195,122.5,130,-140,130,180,200,-220,200,525,74,Sub-Juniors,SBD,M,Raw
5,Rik De Grauwe,2000,Belgium,70.53,155,165,-170,165,115,122.5,125,125,180,192.5,202.5,202.5,492.5,74,Sub-Juniors,SBD,M,Raw
6,Ikumu Ishikawa,2000,Japan,66.72,152.5,167.5,180,180,107.5,112.5,-117.5,112.5,180,197.5,-202.5,197.5,490,74,Sub-Juniors,SBD,M,Raw
7,Matthew Robertson,2000,Canada,73.07,162.5,-170,170,170,95,100,-105,100,205,217.5,-225,217.5,487.5,74,Sub-Juniors,SBD,M,Raw
1,Ewan Belgrove,2000,Australia,81.51,255,267.5,-280,267.5,155,160,166,166,230,-242.5,242.5,242.5,676,83,Sub-Juniors,SBD,M,Raw
2,Artyom Shurupkin,2000,Kazakhstan,81.84,240,250,-255,250,130,135,137.5,137.5,250,260,-271,260,647.5,83,Sub-Juniors,SBD,M,Raw
3,Carson Schamahorn,2001,Canada,81.5,205,217.5,-225,217.5,122.5,130,137.5,137.5,255,262.5,271.5,271.5,626.5,83,Sub-Juniors,SBD,M,Raw
4,Rui Ang Alexander Wei,2000,Singapore,80.48,200,207.5,212.5,212.5,110,120,125,125,257.5,270.5,272,272,609.5,83,Sub-Juniors,SBD,M,Raw
5,Danil Pushkarev,2000,Russia,81.97,210,-220,222.5,222.5,140,145,-150,145,230,-240,-252.5,230,597.5,83,Sub-Juniors,SBD,M,Raw
6,Lloyd Owen,2000,UK,82.05,-210,210,220,220,107.5,112.5,117.5,117.5,210,220,230,230,567.5,83,Sub-Juniors,SBD,M,Raw
7,Shinnosuke Tomita,2001,Japan,82.7,192.5,200,-210,200,137.5,142.5,-147.5,142.5,205,215,222.5,222.5,565,83,Sub-Juniors,SBD,M,Raw
8,Gai Mitsuhashi,2000,Japan,81.83,200,210,-220,210,120,130,-135,130,220,-222.5,-230,220,560,83,Sub-Juniors,SBD,M,Raw
9,Jeret Jordan,2000,Canada,81.14,192.5,-200,-200,192.5,120,130,-132.5,130,200,-210,210,210,532.5,83,Sub-Juniors,SBD,M,Raw
10,Michael Bartz,2001,USA,78.99,185,-195,-195,185,122.5,-127.5,127.5,127.5,155,175,185,185,497.5,83,Sub-Juniors,SBD,M,Raw
1,Anton Biruk,2000,Ukraine,92.82,240,252.5,260,260,137.5,145,152.5,152.5,247.5,260,270,270,682.5,93,Sub-Juniors,SBD,M,Raw
2,Jakub Lenart,2001,Poland,86.7,210,225,232.5,232.5,150,160,162.5,162.5,220,230,235,235,630,93,Sub-Juniors,SBD,M,Raw
3,Michael Berrian,2000,USA,89.84,212.5,-220,-220,212.5,135,137.5,145,145,247.5,257.5,265,265,622.5,93,Sub-Juniors,SBD,M,Raw
4,Karel Rada #2,2001,Czechia,84.47,220,230,235,235,127.5,132.5,137.5,137.5,230,242.5,247.5,247.5,620,93,Sub-Juniors,SBD,M,Raw
5,Edward Harber,2000,UK,91.84,192.5,195,212.5,212.5,142.5,152.5,157.5,157.5,232.5,250,-262.5,250,620,93,Sub-Juniors,SBD,M,Raw
6,Connor Stiles,2001,Canada,85.95,215,222.5,230,230,117.5,127.5,130,130,225,240,252.5,252.5,612.5,93,Sub-Juniors,SBD,M,Raw
7,Thomas Papolis,2000,Canada,87.9,205,212.5,220,220,132.5,137.5,142.5,142.5,215,227.5,237.5,237.5,600,93,Sub-Juniors,SBD,M,Raw
8,Kirill Sakharov,2001,UK,88.73,192.5,202.5,212.5,212.5,142.5,147.5,152.5,152.5,197.5,210,217.5,217.5,582.5,93,Sub-Juniors,SBD,M,Raw
9,Seiya Suzuki,2000,Japan,83.49,170,180,190,190,115,122.5,130,130,-210,210,-230,210,530,93,Sub-Juniors,SBD,M,Raw
1,Corentin Clément,2000,France,104.94,270,285,-300.5,285,165,170,175,175,290,301,323.5,323.5,783.5,105,Sub-Juniors,SBD,M,Raw
2,Davis Creach,2000,USA,102.43,222.5,237.5,245,245,157.5,167.5,172.5,172.5,230,237.5,242.5,242.5,660,105,Sub-Juniors,SBD,M,Raw
3,Ihor Orobets,2000,Ukraine,103.3,150,155,160,160,115,125,-130,125,180,195,205,205,490,105,Sub-Juniors,SBD,M,Raw
1,Hunter Veach,2002,USA,118.46,227.5,240,-242.5,240,150,160,-167.5,160,215,230,237.5,237.5,637.5,120,Sub-Juniors,SBD,M,Raw
2,Karol Wójcik,2001,Poland,110.03,212.5,222.5,232.5,232.5,142.5,147.5,150,150,245,252.5,-255,252.5,635,120,Sub-Juniors,SBD,M,Raw
3,Misha Jafarjan,2001,Russia,112.3,212.5,225,232.5,232.5,137.5,145,-150,145,210,,,210,587.5,120,Sub-Juniors,SBD,M,Raw
4,Lee McCafferty,2002,UK,115.22,202.5,215,-222.5,215,110,117.5,-125,117.5,200,210,212.5,212.5,545,120,Sub-Juniors,SBD,M,Raw
1,Derek Smith,2000,Canada,124.5,227.5,242.5,-255,242.5,142.5,152.5,160,160,250,262.5,272.5,272.5,675,120+,Sub-Juniors,SBD,M,Raw
2,Ian Lucy,2000,UK,133.45,185,197.5,207.5,207.5,107.5,115,120,120,212.5,227.5,240,240,567.5,120+,Sub-Juniors,SBD,M,Raw
1,Dalton LaCoe,1995,USA,52.92,150,167.5,170,170,107.5,117.5,-122.5,117.5,241,260,271.5,271.5,559,53,Juniors,SBD,M,Raw
2,John Pineda,1996,Canada,51.99,137.5,145,-150,145,-110,-110,110,110,187.5,197.5,202.5,202.5,457.5,53,Juniors,SBD,M,Raw
3,David Gomez Izquierdo Jesus,1998,Colombia,52.75,150,157.5,160,160,90,95,-97.5,95,185,-195,-195,185,440,53,Juniors,SBD,M,Raw
1,Andres Ramos,1999,USA,58.59,197.5,207.5,212.5,212.5,105,112.5,117.5,117.5,205,215,227.5,227.5,557.5,59,Juniors,SBD,M,Raw
2,Jason Luo,1995,Canada,58.79,182.5,190,195,195,115,120,-122.5,120,230,241.5,-243,241.5,556.5,59,Juniors,SBD,M,Raw
3,Adriano Firizky,1996,Indonesia,58.55,175,185,190,190,115,122.5,127.5,127.5,70,175,195,195,512.5,59,Juniors,SBD,M,Raw
4,Daniel Tan,1997,Singapore,58.05,175,185,190,190,95,100,105,105,187.5,200,-217.5,200,495,59,Juniors,SBD,M,Raw
5,Daniel Jay #1,1995,UK,58.92,145,-150,-150,145,107.5,112.5,-115,112.5,207.5,-215,-217.5,207.5,465,59,Juniors,SBD,M,Raw
1,Eddie Berglund,1995,Sweden,65.8,215,222.5,227.5,227.5,195.5,-205.5,205.5,205.5,217.5,230,240,240,673,66,Juniors,SBD,M,Raw
2,Dallas Bey,1995,USA,65.9,215,225,232.5,232.5,147.5,155,162.5,162.5,260,270,-280,270,665,66,Juniors,SBD,M,Raw
3,Clifton Pho,1995,Canada,65.12,200,210,215,215,130,137.5,-140,137.5,267.5,285.5,-290.5,285.5,638,66,Juniors,SBD,M,Raw
4,Jake Allison #1,1995,Canada,65.92,210,-220,-220,210,127.5,-135,135,135,265,-275,-286,265,610,66,Juniors,SBD,M,Raw
5,Renzo Santelices,1997,Ecuador,65.44,200,210,217.5,217.5,-125,130,-135,130,240,252.5,-262.5,252.5,600,66,Juniors,SBD,M,Raw
6,Dawid Natorski,1995,Poland,65.63,185,192.5,-200,192.5,127.5,135,-140,135,225,237.5,-247.5,237.5,565,66,Juniors,SBD,M,Raw
7,Juan Santiago,1996,Mexico,65.44,-175,175,-185,175,110,-120,-120,110,210,212.5,-215,212.5,497.5,66,Juniors,SBD,M,Raw
1,Blake Lehew,1995,USA,73.9,255,-263,-264,255,170,175,-180,175,290,-305,305,305,735,74,Juniors,SBD,M,Raw
2,Micheal Seay,1996,USA,73.93,240,250,263.5,263.5,170,177.5,-185,177.5,257.5,-270,-270,257.5,698.5,74,Juniors,SBD,M,Raw
3,Timothy Monigatti,1996,New Zealand,73.7,-242.5,242.5,257.5,257.5,132.5,140,-145,140,270,290.5,-301,290.5,688,74,Juniors,SBD,M,Raw
4,Ilya Mishin,1995,Russia,73.86,205,212.5,217.5,217.5,137.5,142.5,-147.5,142.5,255,265,272.5,272.5,632.5,74,Juniors,SBD,M,Raw
5,Qun Pang Ashton Xue,1995,Singapore,73.08,215,220,227.5,227.5,-122.5,122.5,127.5,127.5,250,260,275,275,630,74,Juniors,SBD,M,Raw
6,Nathan Winsala,1998,UK,73.84,220,232.5,237.5,237.5,120,127.5,132.5,132.5,245,260,-265,260,630,74,Juniors,SBD,M,Raw
7,Kota Egawa,1996,Japan,73.55,230,240,-242.5,240,120,125,-127.5,125,230,240,-250,240,605,74,Juniors,SBD,M,Raw
8,Wei Chua Jonathan Shao,1995,Singapore,72.85,210,220,225,225,112.5,120,125,125,250,-262.5,-262.5,250,600,74,Juniors,SBD,M,Raw
9,Conor Devilly,1996,Ireland,71.62,195,205,-207.5,205,135,142.5,-147.5,142.5,222.5,235,240,240,587.5,74,Juniors,SBD,M,Raw
10,Ryoma Yagi,1997,Japan,73.73,-220,220,-222.5,220,-140,140,-142.5,140,215,-235,-235,215,575,74,Juniors,SBD,M,Raw
11,Sean Ferran,1997,Ireland,71.08,185,197.5,210,210,117.5,122.5,125,125,192.5,205,207.5,207.5,542.5,74,Juniors,SBD,M,Raw
12,Vinicius Silva Marcio,1995,Brazil,73.01,150,162.5,170,170,120,127.5,-130,127.5,215,230,237.5,237.5,535,74,Juniors,SBD,M,Raw
1,Charlie Dickson,1995,USA,82.47,265,280,285,285,162.5,170,172.5,172.5,277.5,292.5,300,300,757.5,83,Juniors,SBD,M,Raw
2,Simon Chang,1995,Canada,82.62,235,247.5,255,255,165,170,177.5,177.5,265,277.5,287.5,287.5,720,83,Juniors,SBD,M,Raw
3,Chido Nnoli,1997,Norway,81.33,210,225,230,230,152.5,157.5,162.5,162.5,295,315.5,-327.5,315.5,708,83,Juniors,SBD,M,Raw
4,Erik Mata,1996,UK,82.44,240,250,255,255,155,162.5,165,165,265,-280,280,280,700,83,Juniors,SBD,M,Raw
5,René Hofer,1997,Austria,82.15,215,225,235,235,-130,130,137.5,137.5,277.5,292.5,-300,292.5,665,83,Juniors,SBD,M,Raw
6,Teemu Hällfors,1995,Finland,80.89,232.5,-242.5,-242.5,232.5,-177.5,177.5,-182.5,177.5,-245,-245,245,245,655,83,Juniors,SBD,M,Raw
7,Kevin Bui,1995,Australia,82.51,180,190,200,200,120,130,140,140,280,300,-316.5,300,640,83,Juniors,SBD,M,Raw
8,Jordan Konczak,1998,Ireland,82.47,200,215,-222.5,215,130,140,145,145,-230,230,240,240,600,83,Juniors,SBD,M,Raw
9,Kiran Toolaram,1999,Trinidad and Tobago,82.96,202.5,-207.5,-207.5,202.5,95,100,102.5,102.5,-215,220,230,230,535,83,Juniors,SBD,M,Raw
10,Rodrigo Clark,1997,Brazil,82.07,167.5,180,-185,180,100,,,100,205,217.5,222.5,222.5,502.5,83,Juniors,SBD,M,Raw
DQ,Stanislav Zdrobylko,1995,Ukraine,81.55,255,262.5,-267.5,262.5,175,180,185,185,-260,-260,-260,,,83,Juniors,SBD,M,Raw
1,Gustav Hedlund,1995,Sweden,91.08,285,300,-302.5,300,190,200,-205,200,315,330,-350,330,830,93,Juniors,SBD,M,Raw
2,Sami Lehtonen,1995,Finland,91.82,235,237.5,245,245,167.5,175,180,180,285,295,300,300,725,93,Juniors,SBD,M,Raw
3,Jun Furukawa,1996,Japan,91.31,270,280,-290,280,140,145,150,150,272.5,-287.5,290,290,720,93,Juniors,SBD,M,Raw
4,Adedapo Ojewale,1997,UK,89.74,230,240,247.5,247.5,140,147.5,152.5,152.5,280,302.5,310,310,710,93,Juniors,SBD,M,Raw
5,Jaroslav Němec,1998,Czechia,91.52,240,250,-257.5,250,175,182.5,-187.5,182.5,270,-282.5,-287.5,270,702.5,93,Juniors,SBD,M,Raw
6,Janne Marttila,1995,Finland,92.42,240,247.5,250,250,-160,160,165,165,260,270,275,275,690,93,Juniors,SBD,M,Raw
7,Quan Tan Kang,1997,Singapore,92.24,215,-225,225,225,165,175,-185,175,245,265,-275,265,665,93,Juniors,SBD,M,Raw
8,Jacob MacKinnon,1997,New Zealand,92.52,242.5,255,-260,255,135,142.5,147.5,147.5,240,252.5,260,260,662.5,93,Juniors,SBD,M,Raw
9,James Frecklington,1995,Australia,91.38,210,220,-232.5,220,137.5,142.5,-147.5,142.5,265,282.5,-295,282.5,645,93,Juniors,SBD,M,Raw
10,Yutetsu Ito,1995,Japan,88.5,210,230,-240,230,140,147.5,150,150,250,-280,-280,250,630,93,Juniors,SBD,M,Raw
11,Dylan Lopes,1996,Brazil,92.5,200,-212.5,-215,200,137.5,142.5,147.5,147.5,220,235,-242.5,235,582.5,93,Juniors,SBD,M,Raw
DQ,Ali Hamdan,1999,Norway,92.79,240,-250,,240,155,162.5,-170,162.5,-265,-265,-265,,,93,Juniors,SBD,M,Raw
1,Rondel Hunte,1996,Trinidad and Tobago,104.7,307.5,320,330,330,195,205,213.5,213.5,320,340,-353.5,340,883.5,105,Juniors,SBD,M,Raw
2,Michael Davis #1,1995,USA,104.86,287.5,302.5,310,310,190,197.5,202.5,202.5,310,325,-330,325,837.5,105,Juniors,SBD,M,Raw
3,Luke Tremblay,1996,Canada,104.5,290,305,312.5,312.5,185,192.5,197.5,197.5,290,305,-312.5,305,815,105,Juniors,SBD,M,Raw
4,Cameron St Amand,1998,Canada,104.02,317.5,-330.5,-330.5,317.5,177.5,-180,-180,177.5,282.5,305,-320,305,800,105,Juniors,SBD,M,Raw
5,Callum Crozier,1996,UK,103.28,240,252.5,262.5,262.5,195,205,207.5,207.5,280,297.5,302.5,302.5,772.5,105,Juniors,SBD,M,Raw
6,Niko Nurmi,1995,Finland,104.42,260,270,275,275,160,-165,-165,160,290,-302.5,-317.5,290,725,105,Juniors,SBD,M,Raw
7,Damian Steinke,1997,Norway,104.26,247.5,262.5,-267.5,262.5,160,165,-170,165,282.5,290,-297.5,290,717.5,105,Juniors,SBD,M,Raw
8,Afzalsho Kholov,1995,Tajikistan,96.33,215,217.5,235,235,187.5,195,202.5,202.5,225,240,255,255,692.5,105,Juniors,SBD,M,Raw
9,Scott Dean,1997,Ireland,103.47,252.5,-265,-265,252.5,135,142.5,147.5,147.5,267.5,272.5,280,280,680,105,Juniors,SBD,M,Raw
10,Carlos Diogo,1996,Brazil,95.21,202.5,215,220,220,122.5,-127.5,-127.5,122.5,245,260,-265,260,602.5,105,Juniors,SBD,M,Raw
DQ,Zakaria Mouffok,1996,Algeria,104.06,310,-320,-320,310,-187.5,-187.5,-187.5,,300,315,330,330,,105,Juniors,SBD,M,Raw
1,Jackson Spencer,1995,Canada,119.76,320,337.5,352.5,352.5,185,192.5,197.5,197.5,320,340,-350,340,890,120,Juniors,SBD,M,Raw
2,Tristan Nazelrod,1996,USA,119.45,300,315,322.5,322.5,200,207.5,-212.5,207.5,305,320,322.5,322.5,852.5,120,Juniors,SBD,M,Raw
3,Mehmet Kaya,1996,Sweden,119.53,305,320,-330,320,180,187.5,192.5,192.5,-310,310,340,340,852.5,120,Juniors,SBD,M,Raw
4,Dmytro Vovk,1996,Ukraine,119.43,300,-315,317.5,317.5,220,235,-240.5,235,280,-295,297.5,297.5,850,120,Juniors,SBD,M,Raw
5,Kieran Gray,1996,UK,115.57,270,290,297.5,297.5,190,202.5,205,205,290,310,-320,310,812.5,120,Juniors,SBD,M,Raw
DD,Boris Cvetkov,1998,Bulgaria,116.48,280,300,-307.5,300,170,182.5,192.5,192.5,-300,320,-340,320,,120,Juniors,SBD,M,Raw
6,Bogdan Prokopev,1998,Russia,119.11,295,-305,305,305,170,177.5,185,185,280,-300,-300,280,770,120,Juniors,SBD,M,Raw
7,Taiki Yamakawa,1996,Japan,118.2,260,277.5,282.5,282.5,160,170,-175,170,280,300,310,310,762.5,120,Juniors,SBD,M,Raw
8,Robin Meineke,1996,Germany,113.05,-265,265,275,275,180,187.5,190,190,280,295,-302.5,295,760,120,Juniors,SBD,M,Raw
9,Callum Pumfleet,1995,New Zealand,119.78,270,-280,280,280,162.5,167.5,,167.5,295,310,-317.5,310,757.5,120,Juniors,SBD,M,Raw
10,Lucas De Queiroz,1995,Brazil,118.82,235,250,260,260,175,185,190,190,270,290,-300,290,740,120,Juniors,SBD,M,Raw
11,Yumi Ohara,1996,Japan,114.98,245,265,-272.5,265,152.5,160,165,165,230,250,-262.5,250,680,120,Juniors,SBD,M,Raw
1,Luke Richardson #1,1997,UK,139.52,347.5,370,380,380,190,202.5,210,210,347.5,370,-377.5,370,960,120+,Juniors,SBD,M,Raw
2,Joseph Peña #1,1998,USA,173.15,400.5,410.5,425.5,425.5,192.5,202.5,207.5,207.5,287.5,-305,-327.5,287.5,920.5,120+,Juniors,SBD,M,Raw
3,Ty Scratch,1996,Canada,142.91,320,330,340,340,215,227.5,-235.5,227.5,305,320,-332.5,320,887.5,120+,Juniors,SBD,M,Raw
4,Erik Røen,1996,Norway,139.77,305,-327.5,327.5,327.5,180,190,192.5,192.5,315,330,-345,330,850,120+,Juniors,SBD,M,Raw
1,Sławomir Śledź,1976,Poland,58.57,175,185,-190.5,185,130,135,140,140,190,200,-210,200,525,59,Masters 1,SBD,M,Raw
2,Ron Brinker,1975,USA,58.35,142.5,147.5,152.5,152.5,90,95,100,100,177.5,-185,-185,177.5,430,59,Masters 1,SBD,M,Raw
1,Anderson Alcantara,1976,Brazil,65.67,180,195,-207.5,195,122.5,130,135,135,230,257.5,270.5,270.5,600.5,66,Masters 1,SBD,M,Raw
2,Lewis Noppers,1970,Canada,65.53,185,195,-202.5,195,127.5,132.5,135,135,255,-265,-271,255,585,66,Masters 1,SBD,M,Raw
3,Jean-Sébastien Rhéaume,1974,Canada,65.7,195,205,-212.5,205,125,130,-132.5,130,222.5,235,-240,235,570,66,Masters 1,SBD,M,Raw
4,Greig Murray,1971,UK,65.1,155,-165,165,165,115,122.5,127.5,127.5,210,222.5,232.5,232.5,525,66,Masters 1,SBD,M,Raw
5,Mike Cagliola,1970,USA,65.7,-167.5,167.5,177.5,177.5,125,132.5,-135,132.5,202.5,210,215,215,525,66,Masters 1,SBD,M,Raw
6,Michael Bernard,1970,France,65.02,167.5,-172.5,-172.5,167.5,140,145,,145,200,210,-212.5,210,522.5,66,Masters 1,SBD,M,Raw
7,Roger Hamilton-Smith,1975,UK,65.18,160,175,180,180,102.5,112.5,115,115,205,217.5,225,225,520,66,Masters 1,SBD,M,Raw
8,Paul McLaren,1974,Ireland,65.84,150,157.5,162.5,162.5,82.5,87.5,-92.5,87.5,225,237.5,-242.5,237.5,487.5,66,Masters 1,SBD,M,Raw
1,Tom Kean,1972,Canada,73.77,210,220,-222.5,220,140,150,152.5,152.5,240,-245,245,245,617.5,74,Masters 1,SBD,M,Raw
2,Jøran Langset,1977,Norway,73.36,200,212.5,220,220,125,130,135,135,215,235,250,250,605,74,Masters 1,SBD,M,Raw
3,Enkhbat Sanduijav,1974,Mongolia,73.06,205,-210,-210,205,122.5,127.5,-130,127.5,240,250,-267.5,250,582.5,74,Masters 1,SBD,M,Raw
4,Pekka Taskinen,1978,Finland,73.66,205,212.5,-217.5,212.5,125,-130,130,130,230,237.5,-242.5,237.5,580,74,Masters 1,SBD,M,Raw
5,Timo Heiskanen,1970,Finland,73.32,192.5,-202.5,-202.5,192.5,107.5,115,-120,115,252.5,262.5,-277.5,262.5,570,74,Masters 1,SBD,M,Raw
6,Jason Jackson #1,1974,USA,73.32,195,-215,-215,195,120,125,-127.5,125,235,-250,-250,235,555,74,Masters 1,SBD,M,Raw
7,Sean Muir,1970,Australia,73.9,-180,180,190,190,120,122.5,-125,122.5,225,232.5,-245,232.5,545,74,Masters 1,SBD,M,Raw
1,Pasi Sipiläinen,1978,Finland,82.75,215,222.5,227.5,227.5,160,165,-167.5,165,280,290,-300,290,682.5,83,Masters 1,SBD,M,Raw
2,Benjamin Rowe,1976,USA,82.32,240,250,-255,250,145,155,160,160,240,250,255,255,665,83,Masters 1,SBD,M,Raw
3,PK Mills,1975,Canada,82.65,200,215,225,225,135,142.5,147.5,147.5,250,262.5,282.5,282.5,655,83,Masters 1,SBD,M,Raw
4,Davranbek Turakhanov,1974,Kazakhstan,80.7,207.5,222.5,232.5,232.5,135,142.5,-147.5,142.5,247.5,257.5,-267.5,257.5,632.5,83,Masters 1,SBD,M,Raw
5,Munetaka Sanaki,1978,Japan,81.96,-220,-220,220,220,140,145,147.5,147.5,230,242.5,250,250,617.5,83,Masters 1,SBD,M,Raw
6,Marie Mohamed,1977,Egypt,80.65,190,200,205,205,-150,150,-155,150,240,250,257.5,257.5,612.5,83,Masters 1,SBD,M,Raw
7,Marlon Daniels,1975,South Africa,81.14,-230,-230,230,230,155,160,-162.5,160,200,215,-220,215,605,83,Masters 1,SBD,M,Raw
8,Jan Smolczyk,1970,Germany,79.2,175,185,190,190,135,140,142.5,142.5,230,-245,245,245,577.5,83,Masters 1,SBD,M,Raw
9,Bernhard Greindl,1969,Germany,77.2,-125,125,135,135,107.5,-112.5,-112.5,107.5,160,172.5,-177.5,172.5,415,83,Masters 1,SBD,M,Raw
1,Gabriel García,1975,Mexico,91.09,260,270,-277.5,270,165,170,172.5,172.5,267.5,280,287.5,287.5,730,93,Masters 1,SBD,M,Raw
2,Brandon Summers,1977,Canada,92.2,250,260,267.5,267.5,175,185,192.5,192.5,250,262.5,270,270,730,93,Masters 1,SBD,M,Raw
3,Jeff Butt,1970,Canada,92.47,240,250,257.5,257.5,155,160,165,165,252.5,265,272.5,272.5,695,93,Masters 1,SBD,M,Raw
4,Loic Caron,1976,France,92.26,205,212.5,220,220,155,160,-165,160,225,235,242.5,242.5,622.5,93,Masters 1,SBD,M,Raw
5,Ruben Hoffman Gjelsnes,1973,Norway,92.46,212.5,220,-225,220,130,135,-140,135,230,-245,-255,230,585,93,Masters 1,SBD,M,Raw
1,Daniele Pauli,1978,Switzerland,103.25,260,270,280,280,175,182.5,187.5,187.5,275,287.5,295,295,762.5,105,Masters 1,SBD,M,Raw
2,Karel Rada #1,1973,Czechia,104.24,270,285,-290,285,160,-170,170,170,270,285,-300,285,740,105,Masters 1,SBD,M,Raw
3,Christopher Thacker,1977,USA,104.74,255,265,-275,265,190,192.5,-195,192.5,265,-275,-275,265,722.5,105,Masters 1,SBD,M,Raw
4,Sujay Janardhan,1976,India,99.13,230,-250,-250,230,100,102.5,-105,102.5,270,285,-287.5,285,617.5,105,Masters 1,SBD,M,Raw
5,Akihiro Takezawa,1973,Japan,101.12,205,220,-230,220,170,182.5,-192.5,182.5,200,212.5,-217.5,212.5,615,105,Masters 1,SBD,M,Raw
DD,Nezar Ballil,1978,Morocco,100.43,175,177.5,190,190,172.5,-175,-175,172.5,-190,-210,210,210,,105,Masters 1,SBD,M,Raw
1,Ryan J Stills,1976,USA,118.39,255,-275,285,285,192.5,200,205,205,320,340,360,360,850,120,Masters 1,SBD,M,Raw
2,Antti Vihola,1975,Finland,119.3,260,280,287.5,287.5,200,210,-212.5,210,290,305,307.5,307.5,805,120,Masters 1,SBD,M,Raw
3,Pavol Demčák,1977,Czechia,118.45,267.5,282.5,290,290,212.5,217.5,-222.5,217.5,275,287.5,295,295,802.5,120,Masters 1,SBD,M,Raw
4,Hassan Koaik,1972,Lebanon,117.09,280,-285,285,285,190,-195,-195,190,290,-305,305,305,780,120,Masters 1,SBD,M,Raw
5,Collin Pullar,1972,Canada,120,270,282.5,290,290,185,-197.5,-197.5,185,275,287.5,-292.5,287.5,762.5,120,Masters 1,SBD,M,Raw
6,Darren Greville,1970,UK,117.04,215,230,240,240,155,-167.5,167.5,167.5,230,250,-255,250,657.5,120,Masters 1,SBD,M,Raw
7,Natraj Subramanya,1974,India,105.01,190,205,220,220,140,150,157.5,157.5,240,252.5,260,260,637.5,120,Masters 1,SBD,M,Raw
8,Marcel Benzler,1974,Germany,117.15,215,230,-235,230,145,155,160,160,220,230,242.5,242.5,632.5,120,Masters 1,SBD,M,Raw
1,Jaisyn Mike,1977,USA,143.46,295,317.5,330,330,240,260,281,281,300,312.5,-345,312.5,923.5,120+,Masters 1,SBD,M,Raw
2,Jamey Grotjahn,1974,USA,178.11,-290,290,310,310,225,240,247.5,247.5,300,312.5,322.5,322.5,880,120+,Masters 1,SBD,M,Raw
3,Josh Simpson,1977,Canada,143.15,290,310,-320,310,220,230,235,235,280,292.5,-305,292.5,837.5,120+,Masters 1,SBD,M,Raw
4,Éric Bonin,1972,France,133.25,260,270,275,275,205,-210,210,210,270,-280,,270,755,120+,Masters 1,SBD,M,Raw
5,Haruhisa Shioya,1974,Japan,142.15,180,190,-200,190,120,130,-135,130,200,-220,-220,200,520,120+,Masters 1,SBD,M,Raw
1,Henry Chay,1961,UK,58.34,140,145,-150,145,80,-82.5,-82.5,80,177.5,185,190,190,415,59,Masters 2,SBD,M,Raw
2,Tomoyoshi Shiiki,1964,Japan,58.43,120,130,140,140,100,107.5,112.5,112.5,-150,-150,150,150,402.5,59,Masters 2,SBD,M,Raw
3,Hideaki Nakamura,1960,Japan,58.78,115,122.5,127.5,127.5,95,100,105,105,150,160,-167.5,160,392.5,59,Masters 2,SBD,M,Raw
4,Romuald Buisson,1964,France,57.21,102.5,107.5,110,110,72.5,-77.5,-77.5,72.5,152.5,157.5,162.5,162.5,345,59,Masters 2,SBD,M,Raw
5,Leovogildo Ayala Morales,1965,USA,56.43,70,90,100,100,60,75,-80,75,100,120,-125,120,295,59,Masters 2,SBD,M,Raw
1,Jeff Phillips #1,1965,USA,64.78,130,140,165,165,107.5,112.5,-115,112.5,210,220,227.5,227.5,505,66,Masters 2,SBD,M,Raw
2,Jay McGrath,1968,Canada,64.22,157.5,162.5,165,165,100,105,107.5,107.5,185,192.5,-200,192.5,465,66,Masters 2,SBD,M,Raw
3,Fabrice Pailler,1963,France,64.95,145,-150,-150,145,95,100,-107.5,100,192.5,-200,-200,192.5,437.5,66,Masters 2,SBD,M,Raw
1,Takayuki Ito,1964,Japan,73.57,190,202.5,210,210,117.5,125,127.5,127.5,220,237.5,245,245,582.5,74,Masters 2,SBD,M,Raw
2,Alimbek Rakhimov,1966,Kyrgyzstan,73.95,187.5,195,200,200,-145,147.5,152.5,152.5,217.5,-225,227.5,227.5,580,74,Masters 2,SBD,M,Raw
3,Jacob Carrasco-Gonzales,1966,Peru,73.12,200,210,215,215,120,-125,-125,120,225,235,-242.5,235,570,74,Masters 2,SBD,M,Raw
4,Matthias Siegle,1963,Germany,73.72,187.5,195,202.5,202.5,125,130,-132.5,130,227.5,-237.5,-240,227.5,560,74,Masters 2,SBD,M,Raw
5,Patrick Keenan,1966,USA,71.15,182.5,197.5,-205,197.5,112.5,122.5,127.5,127.5,200,210,212.5,212.5,537.5,74,Masters 2,SBD,M,Raw
6,Joe McCullough,1966,Canada,73.15,177.5,185,190,190,115,117.5,-120,117.5,210,220,-225,220,527.5,74,Masters 2,SBD,M,Raw
7,Dean McGarry,1967,Australia,72.17,160,175,-185,175,112.5,-117.5,-117.5,112.5,227.5,-242.5,-242.5,227.5,515,74,Masters 2,SBD,M,Raw
8,Ashok Giliyar Vasudeva,1960,India,73.78,140,155,-160,155,80,85,90,90,180,195,-200,195,440,74,Masters 2,SBD,M,Raw
1,Laddie Gibson,1965,USA,82.2,200,210,215,215,160,171,176,176,245,260,-265,260,651,83,Masters 2,SBD,M,Raw
2,Jeff Becker,1963,Canada,82.5,215,225,230,230,140,145,-147.5,145,252.5,262.5,-277.5,262.5,637.5,83,Masters 2,SBD,M,Raw
3,Philippe Pasquier,1967,France,81.25,200,215,220,220,115,120,125,125,215,225,235,235,580,83,Masters 2,SBD,M,Raw
4,Andrew Bryant,1966,Canada,82.76,192.5,202.5,210,210,130,140,-145,140,190,205,217.5,217.5,567.5,83,Masters 2,SBD,M,Raw
5,Heikki Heiskanen,1960,Finland,82.16,175,182.5,187.5,187.5,120,127.5,132.5,132.5,215,-227.5,-227.5,215,535,83,Masters 2,SBD,M,Raw
6,Erik Rasmussen,1962,Denmark,81.63,175,185,190,190,125,130,-132.5,130,180,195,-200,195,515,83,Masters 2,SBD,M,Raw
7,Abdelali Yacoubi Sahli,1966,Morocco,81.21,140,150,160,160,140,147.5,150,150,160,170,190,190,500,83,Masters 2,SBD,M,Raw
1,Gordon Langfield,1968,Canada,92.72,205,212.5,215,215,167.5,175,177.5,177.5,210,220,230,230,622.5,93,Masters 2,SBD,M,Raw
2,Nicolás Urioste,1968,Uruguay,92.3,-205,205,-215,205,147.5,152.5,-157.5,152.5,215,225,-230,225,582.5,93,Masters 2,SBD,M,Raw
DQ,David Ricks,1959,USA,92.4,-290,-290,-290,,185,197.5,-210,197.5,265,282.5,312.5,312.5,,93,Masters 2,SBD,M,Raw
1,Alvin Fritz,1968,USA,104.61,-255,255,270,270,160,167.5,-170,167.5,262.5,277.5,287.5,287.5,725,105,Masters 2,SBD,M,Raw
2,Jarosław Dąbrowski,1965,Poland,104.82,230,-240,-245,230,155,160,-165,160,270,285,295.5,295.5,685.5,105,Masters 2,SBD,M,Raw
3,Andy Childs,1967,Canada,104.77,-240,240,-247.5,240,150,155,160,160,240,260,-280,260,660,105,Masters 2,SBD,M,Raw
4,Sterling Nering,1963,Canada,101.24,75,105,-120,105,150,155,160,160,75,-95,-95,75,340,105,Masters 2,SBD,M,Raw
1,Richard Wilcox,1967,USA,117.86,247.5,260,-267.5,260,175,182.5,-190,182.5,275,290,300,300,742.5,120,Masters 2,SBD,M,Raw
2,Alistair Murdoch,1967,UK,113.2,215,235,242.5,242.5,190,200,207.5,207.5,245,262.5,265,265,715,120,Masters 2,SBD,M,Raw
3,Zoltán Kanát,1962,Czechia,114.29,250,262.5,270,270,162.5,170,-172.5,170,255,265,-277.5,265,705,120,Masters 2,SBD,M,Raw
4,Richard Hocquard,1968,France,118.34,252.5,-265,-265,252.5,165,-170,-170,165,265,-270,-270,265,682.5,120,Masters 2,SBD,M,Raw
5,David Holmes,1965,Canada,115.11,210,227.5,-240,227.5,157.5,167.5,172.5,172.5,235,255,262.5,262.5,662.5,120,Masters 2,SBD,M,Raw
6,Ronny Andersen,1964,Norway,119.53,210,220,-227.5,220,150,157.5,162.5,162.5,250,265,270,270,652.5,120,Masters 2,SBD,M,Raw
7,Jean-Claude Pinat,1963,France,107.02,200,215,,215,-155,155,-162.5,155,230,-250,-250,230,600,120,Masters 2,SBD,M,Raw
8,Uwe Doerfert,1959,Germany,114.83,170,180,-185,180,125,132.5,137.5,137.5,160,177.5,187.5,187.5,505,120,Masters 2,SBD,M,Raw
1,Beau Moore #1,1965,USA,167.89,282.5,-305,305,305,202.5,215.5,-228,215.5,287.5,310.5,320,320,840.5,120+,Masters 2,SBD,M,Raw
2,Johan Kerremans,1967,Belgium,132.65,265,280,,280,160,175,185,185,270,300,-312.5,300,765,120+,Masters 2,SBD,M,Raw
3,Tony Chard,1968,France,125.67,-215,215,-235,215,165,175,180,180,250,275,292.5,292.5,687.5,120+,Masters 2,SBD,M,Raw
4,Harry Seriese,1963,Netherlands,123.97,245,255,-262.5,255,162.5,170,-172.5,170,240,255,260,260,685,120+,Masters 2,SBD,M,Raw
5,Timo Rantala,1963,Finland,123.26,175,190,200,200,140,150,-157.5,150,200,220,-225,220,570,120+,Masters 2,SBD,M,Raw
1,Mitsuhiro Uraki,1957,Japan,58.53,120,135,140.5,140.5,85,92.5,-96,92.5,170,182.5,-190.5,182.5,415.5,59,Masters 3,SBD,M,Raw
2,Phil Drenik,1956,USA,57.84,127.5,132.5,135,135,65,72.5,-75,72.5,170,177.5,-190.5,177.5,385,59,Masters 3,SBD,M,Raw
3,Naotaka Nemoto,1952,Japan,57.52,110,-120,120,120,80,-85,-85,80,150,160,-165,160,360,59,Masters 3,SBD,M,Raw
1,Monte Lofing,1958,USA,65.19,167.5,177.5,185.5,185.5,90,95,97.5,97.5,170,177.5,182.5,182.5,465.5,66,Masters 3,SBD,M,Raw
2,Georges Auberval,1956,France,65.96,142.5,152.5,160,160,55,60,-65,60,160,170,180,180,400,66,Masters 3,SBD,M,Raw
3,I Pauly N,1956,India,63.38,120,122.5,125,125,80,-85,85,85,155,-165,-165,155,365,66,Masters 3,SBD,M,Raw
4,Don Lovell,1951,Canada,64.92,105,115,-117.5,115,55,60,62.5,62.5,160,172.5,-180,172.5,350,66,Masters 3,SBD,M,Raw
DQ,Alain Cuvelier,1953,France,64.05,-142.5,-142.5,-142.5,,82.5,-90,90,90,172.5,-175,-185,172.5,,66,Masters 3,SBD,M,Raw
DQ,Mitsugu Hachisu,1950,Japan,64.71,-160,-160,-160,,115,120,-122.5,120,180,187.5,-192.5,187.5,,66,Masters 3,SBD,M,Raw
1,Bernard Vachon,1955,Canada,72.41,195,-206.5,206.5,206.5,77.5,85,-87.5,85,217.5,228,235,235,526.5,74,Masters 3,SBD,M,Raw
2,Bob Hindley,1958,Canada,71.5,-162.5,162.5,-175,162.5,72.5,77.5,80,80,210,-220,220,220,462.5,74,Masters 3,SBD,M,Raw
3,Akinori Yasukura,1958,Japan,73.25,160,170,180,180,90,95,-100,95,170,180,-190,180,455,74,Masters 3,SBD,M,Raw
4,Bo Stridh,1952,Sweden,72.76,145,-150,150,150,105,-107.5,,105,-190,-190,190,190,445,74,Masters 3,SBD,M,Raw
5,Patrick Malenfant,1958,France,72.54,135,142.5,-147.5,142.5,100,105,-107.5,105,150,-160,160,160,407.5,74,Masters 3,SBD,M,Raw
DQ,Christian Voisin,1956,France,71.36,180,190,200,200,122.5,125,127.5,127.5,-212.5,-212.5,-212.5,,,74,Masters 3,SBD,M,Raw
1,Ron Delaney,1951,Canada,82.53,160,170,177.5,177.5,115,117.5,120,120,230,242.5,247.5,247.5,545,83,Masters 3,SBD,M,Raw
2,Brett Zoerb,1958,Canada,81.58,170,180,187.5,187.5,110,117.5,122.5,122.5,175,190,207.5,207.5,517.5,83,Masters 3,SBD,M,Raw
3,John LaFlamme,1950,USA,82.06,180,187.5,192.5,192.5,97.5,102.5,107.5,107.5,217.5,-232.5,-232.5,217.5,517.5,83,Masters 3,SBD,M,Raw
4,Alex Howe #1,1957,USA,80.38,130,137.5,145,145,95,100,102.5,102.5,170,182.5,192.5,192.5,440,83,Masters 3,SBD,M,Raw
5,Louis Naronha,1957,India,81.22,120,122.5,125,125,-80,-80,80,80,130,140,-150,140,345,83,Masters 3,SBD,M,Raw
6,C Rathore J,1950,India,77.64,-110,110,-120,110,65,,,65,-120,120,,120,295,83,Masters 3,SBD,M,Raw
1,Eric Mauchosse,1958,France,92.15,220,230,,230,120,130,-135,130,240,260,-270,260,620,93,Masters 3,SBD,M,Raw
2,Jens Aarhus,1954,Sweden,92.56,200,220,-230.5,220,120,130,132.5,132.5,200,220,227.5,227.5,580,93,Masters 3,SBD,M,Raw
3,Chandrababu D,1957,India,83.16,125,127.5,130,130,70,77.5,,77.5,130,137.5,142.5,142.5,350,93,Masters 3,SBD,M,Raw
DQ,Roger Gedye,1956,New Zealand,90.27,-152.5,-152.5,-152.5,,110,115,117.5,117.5,200,215,220,220,,93,Masters 3,SBD,M,Raw
1,Józef Gromek,1958,Poland,93.09,215,231,237.5,237.5,140,-147.5,-147.5,140,245,260,-270,260,637.5,105,Masters 3,SBD,M,Raw
2,Veijo Räsänen,1957,Finland,100.79,180,195,200,200,152.5,157.5,160,160,252.5,265,-278,265,625,105,Masters 3,SBD,M,Raw
3,Hugo de Grauwe,1954,Belgium,102.98,205,-215,215,215,130,-135,-135,130,222.5,232.5,242.5,242.5,587.5,105,Masters 3,SBD,M,Raw
4,Thomas Högberg,1957,Sweden,104.61,205,215,-222.5,215,132.5,-137.5,137.5,137.5,225,-235,-235,225,577.5,105,Masters 3,SBD,M,Raw
5,Kazuyoshi Kozai,1956,Japan,99.15,192.5,207.5,212.5,212.5,-127.5,130,132.5,132.5,190,205,-212.5,205,550,105,Masters 3,SBD,M,Raw
6,Rory McCoy,1955,USA,104.49,165,180,187.5,187.5,100,112.5,125,125,210,235,-242.5,235,547.5,105,Masters 3,SBD,M,Raw
7,Miroslav Koprnicky,1951,Canada,99.49,175,182.5,-190,182.5,140,150,-152.5,150,195,205,-215,205,537.5,105,Masters 3,SBD,M,Raw
8,Rüdiger Hopp,1955,Sweden,101.98,195,205,-225,205,110,115,,115,175,200,-232.5,200,520,105,Masters 3,SBD,M,Raw
9,Jean-Paul Belmas,1949,France,99.63,170,180,190,190,102.5,107.5,110,110,190,,,190,490,105,Masters 3,SBD,M,Raw
1,Ron Strong,1958,Canada,118.53,215,225,233,233,137.5,147.5,152.5,152.5,267.5,280,-290,280,665.5,120,Masters 3,SBD,M,Raw
2,Frank Panaro,1951,USA,110.79,212.5,222.5,232.5,232.5,125,130,135,135,-262.5,262.5,272.5,272.5,640,120,Masters 3,SBD,M,Raw
3,Sergy Shadyun,1957,USA,118.47,205,215,-220,215,125,130,135,135,180,205,212.5,212.5,562.5,120,Masters 3,SBD,M,Raw
4,John Maguire,1954,Ireland,118.59,-175,-175,175,175,142.5,147.5,150,150,220,-237.5,-237.5,220,545,120,Masters 3,SBD,M,Raw
1,Curtis Wainwright,1954,USA,124.93,210,220,228,228,120,125,127.5,127.5,230,240,-250,240,595.5,120+,Masters 3,SBD,M,Raw
2,John O'Dwyer,1955,Ireland,131.75,180,200,-205,200,160,167.5,-175,167.5,190,200,-202.5,200,567.5,120+,Masters 3,SBD,M,Raw
3,Kelvin Aitken,1957,Australia,121.22,190,202.5,-205,202.5,25,,,25,65,150,-205,150,377.5,120+,Masters 3,SBD,M,Raw
1,Iain Burgess,1944,USA,58.23,95,100,105,105,-55,55,60,60,115,125,,125,290,59,Masters 4,SBD,M,Raw
2,Mohan Datt Sharma,1945,India,54.77,50,52.5,65,65,30,40,45,45,75,90,105,105,215,59,Masters 4,SBD,M,Raw
1,Katsuji Okiura,1945,Japan,65.45,150,-165,165,165,75,80,-82.5,80,180,-195.5,,180,425,66,Masters 4,SBD,M,Raw
2,Daniel Rohrbach,1947,USA,65.2,110,117.5,122.5,122.5,75,80,82.5,82.5,135,142.5,145,145,350,66,Masters 4,SBD,M,Raw
3,Alex Galant,1947,USA,62.3,102.5,-110,-110,102.5,42.5,50,52.5,52.5,112.5,127.5,137.5,137.5,292.5,66,Masters 4,SBD,M,Raw
1,Ernie Parkes,1942,UK,73.18,135,-145,145,145,85,-90,90,90,202.5,212.5,227.5,227.5,462.5,74,Masters 4,SBD,M,Raw
2,Kuniyoshi Sato,1943,Japan,73.08,140,160,170,170,80,90,-100,90,170,190,200,200,460,74,Masters 4,SBD,M,Raw
3,Peter Kravtsov,1946,USA,73.57,-160,-160,160,160,95,-97.5,97.5,97.5,175,-177.5,-180,175,432.5,74,Masters 4,SBD,M,Raw
4,Frank Stamboolian Jr,1938,USA,72.4,125,-135,-135,125,82.5,90,-92.5,90,142.5,155,-160,155,370,74,Masters 4,SBD,M,Raw
5,Tom Cragg,1941,Canada,69.33,77.5,-82.5,-85,77.5,25,,,25,130,137.5,145,145,247.5,74,Masters 4,SBD,M,Raw
1,Jeff Hughes,1946,USA,79.91,117.5,122.5,127.5,127.5,87.5,92.5,95,95,175,182.5,187.5,187.5,410,83,Masters 4,SBD,M,Raw
2,Kari Mattila,1945,Sweden,82.81,115,125,130,130,82.5,90,-95,90,175,187.5,-192.5,187.5,407.5,83,Masters 4,SBD,M,Raw
1,Kazimierz Michael Forys,1945,Germany,92.27,170,177.5,-185,177.5,130,-138.5,-139,130,210,225,-240.5,225,532.5,93,Masters 4,SBD,M,Raw
2,Laurie Greenidge,1948,Canada,91.43,165,-172.5,172.5,172.5,95,102.5,105,105,200,205,-210,205,482.5,93,Masters 4,SBD,M,Raw
3,Tilman Gallant,1948,Canada,88.18,120,130,140,140,132.5,138.5,140,140,140,150,160,160,440,93,Masters 4,SBD,M,Raw
1,Christian Buchs,1947,France,97.75,190,205,213,213,100,110,115,115,215,230,235,235,563,105,Masters 4,SBD,M,Raw
2,Yaroslav Chala,1948,Ukraine,97.38,135,150,160,160,137.5,145,150.5,150.5,180,195,205,205,515.5,105,Masters 4,SBD,M,Raw
3,Claudir Lopes,1940,Brazil,99.82,155,160,170,170,127.5,135,140,140,160,170,-180,170,480,105,Masters 4,SBD,M,Raw
1,Bill Stevens,1947,Canada,109.96,195,-200.5,200.5,200.5,125,127.5,130,130,190,197.5,210,210,540.5,120,Masters 4,SBD,M,Raw
2,Robert Evans #1,1946,USA,106.19,120,130,140,140,105,115,-125,115,120,130,140,140,395,120,Masters 4,SBD,M,Raw
1,Stina Åkemalm,1989,Sweden,46.85,120,125,127.5,127.5,75,-80,-80,75,155,-160,160,160,362.5,47,Open,SBD,F,Raw
2,Hanna Rantala,1982,Finland,46.99,112.5,117.5,120,120,90,-92.5,92.5,92.5,135,142.5,147.5,147.5,360,47,Open,SBD,F,Raw
3,Rhonda Wong,1992,Canada,46.54,112.5,120,125,125,60,65,70,70,135,142.5,152.5,152.5,347.5,47,Open,SBD,F,Raw
4,Allegra Hudson,1994,USA,46.67,112.5,120,125,125,65,70,72.5,72.5,140,150,-152.5,150,347.5,47,Open,SBD,F,Raw
5,Leslie Evangelista,1981,Philippines,46.87,115,120,122.5,122.5,65,67.5,-70,67.5,147.5,152.5,157.5,157.5,347.5,47,Open,SBD,F,Raw
6,Noémie Allabert,1990,France,46.16,112.5,120,122.5,122.5,62.5,67.5,-70,67.5,150,-157.5,-157.5,150,340,47,Open,SBD,F,Raw
7,Rie Kani,1979,Japan,46.55,110,-115,115,115,70,-75,-75,70,140,150,-157.5,150,335,47,Open,SBD,F,Raw
8,Danielle Malcolm,1991,UK,46.73,100,105,107.5,107.5,67.5,70,72.5,72.5,130,140,-147.5,140,320,47,Open,SBD,F,Raw
9,Aya Fukumura,1986,Japan,46.61,87.5,95,102.5,102.5,-65,65,70,70,115,125,135,135,307.5,47,Open,SBD,F,Raw
10,Coline Sirman,1990,Switzerland,46.85,82.5,-87.5,90,90,55,60,-62.5,60,-125,125,-132.5,125,275,47,Open,SBD,F,Raw
1,Joy Nnamani,1992,UK,51.87,142.5,150,,150,80,82.5,85,85,180,192.5,195.5,195.5,430.5,52,Open,SBD,F,Raw
2,Marisa Inda,1976,USA,51.85,-140,142.5,-147.5,142.5,90,95,97.5,97.5,170,180,-190,180,420,52,Open,SBD,F,Raw
3,Olga Golubeva,1970,Russia,51.86,135,140,145,145,95,100,-102.5,100,150,160,165,165,410,52,Open,SBD,F,Raw
4,Vilma Ochoa Vargas,1980,Ecuador,51.86,135,142.5,-147.5,142.5,77.5,82.5,-85,82.5,160,170,-180,170,395,52,Open,SBD,F,Raw
5,Sophia Waldemarson,1988,Sweden,51.38,117.5,122.5,-127.5,122.5,95,100,102.5,102.5,150,157.5,162.5,162.5,387.5,52,Open,SBD,F,Raw
6,Joanna Rieber,1976,Canada,51.39,127.5,-132.5,-135,127.5,90,95,-97.5,95,150,157.5,162.5,162.5,385,52,Open,SBD,F,Raw
7,Amanda Foulkes,1988,New Zealand,51.18,135,140,142.5,142.5,65,-67.5,67.5,67.5,157.5,165,-172.5,165,375,52,Open,SBD,F,Raw
8,Suzan Premji,1984,New Zealand,51.64,130,135,-140,135,75,77.5,-80,77.5,147.5,155,160,160,372.5,52,Open,SBD,F,Raw
9,Pleun Dekkers,1994,Netherlands,50.65,132.5,137.5,-140,137.5,75,77.5,-80,77.5,145,152.5,-155,152.5,367.5,52,Open,SBD,F,Raw
10,Anna Komlaeva,1979,Russia,51.74,125,130,135,135,75,80,-82.5,80,140,150,-155,150,365,52,Open,SBD,F,Raw
11,Emma Goodwin,1987,UK,51.75,107.5,115,-120,115,62.5,67.5,-70,67.5,157.5,167.5,177.5,177.5,360,52,Open,SBD,F,Raw
12,Andi Carlisle,1987,Australia,51.21,-117.5,-117.5,117.5,117.5,82.5,87.5,-90,87.5,132.5,142.5,150,150,355,52,Open,SBD,F,Raw
13,Ana Almeida,1981,Brazil,51.69,-110,-110,110,110,62.5,65,-67.5,65,125,130,137.5,137.5,312.5,52,Open,SBD,F,Raw
14,Catherine Lekić,1982,Austria,50.57,95,100,102.5,102.5,52.5,57.5,60,60,122.5,132.5,137.5,137.5,300,52,Open,SBD,F,Raw
1,Jennifer Millican,1983,USA,56.07,162.5,-170,170,170,95,-100,-100,95,170,180,185,185,450,57,Open,SBD,F,Raw
2,Kenia Monserrate,1991,Ecuador,55.92,150,157.5,-160,157.5,87.5,92.5,95,95,175,182.5,187.5,187.5,440,57,Open,SBD,F,Raw
3,Inna Filimonova #1,1976,Russia,56.45,160,170,-172.5,170,75,80,-85,80,167.5,-180,-180,167.5,417.5,57,Open,SBD,F,Raw
4,Steph Kean,1986,Canada,56.59,150,155,-162.5,155,70,75,80,80,167.5,175,-180,175,410,57,Open,SBD,F,Raw
5,Lucia Puricelli,1993,UK,56.68,145,152.5,157.5,157.5,80,85,87.5,87.5,150,162.5,-167.5,162.5,407.5,57,Open,SBD,F,Raw
6,Caroline Suné,1985,France,56.4,147.5,-150,-150,147.5,72.5,77.5,-80,77.5,152.5,160,165,165,390,57,Open,SBD,F,Raw
7,Mélodie Anthouard,1988,France,56.84,132.5,137.5,-140,137.5,97.5,-102.5,-102.5,97.5,150,-155,155,155,390,57,Open,SBD,F,Raw
8,Yuliya Vavilova,1979,Russia,56.96,135,145,150,150,75,80,82.5,82.5,150,-157.5,157.5,157.5,390,57,Open,SBD,F,Raw
9,Vanessa Alvares,1978,Brazil,56.05,152.5,-160,-162.5,152.5,50,55,60,60,165,172.5,-180,172.5,385,57,Open,SBD,F,Raw
10,Chloé-Jade McDonald,1992,Ireland,56.22,120,125,130,130,62.5,67.5,70,70,152.5,165,177.5,177.5,377.5,57,Open,SBD,F,Raw
11,Jodie Cook #1,1988,UK,57,127.5,-135,-135,127.5,75,80,-82.5,80,160,170,-177.5,170,377.5,57,Open,SBD,F,Raw
12,Catherine Shon,1992,New Zealand,55.71,-132.5,132.5,137.5,137.5,75,80,82.5,82.5,-142.5,142.5,-150,142.5,362.5,57,Open,SBD,F,Raw
13,Ragnheiður Kr. Sigurðardóttir,1981,Iceland,56.59,122.5,125,127.5,127.5,77.5,80,-82.5,80,140,145,150,150,357.5,57,Open,SBD,F,Raw
14,Martina Lang,1988,Austria,56.67,125,-130,130,130,75,80,82.5,82.5,132.5,137.5,142.5,142.5,355,57,Open,SBD,F,Raw
15,Mikiko Nakai,1990,Japan,57,85,95,105,105,57.5,-62.5,-62.5,57.5,130,-140,-140,130,292.5,57,Open,SBD,F,Raw
1,Jennifer Thompson #1,1973,USA,61.98,132.5,147.5,-155,147.5,125,140,142.5,142.5,170,202.5,-207.5,202.5,492.5,63,Open,SBD,F,Raw
2,Samantha Calhoun,1990,USA,62.7,152.5,162.5,-167.5,162.5,95,100,105,105,202.5,215,221.5,221.5,489,63,Open,SBD,F,Raw
3,Maria Htee,1988,Canada,61.14,177.5,183.5,-188,183.5,100,105,107.5,107.5,185,190,-195,190,481,63,Open,SBD,F,Raw
4,Ivana Horná,1990,Slovakia,62.37,160,167.5,170,170,92.5,-97.5,-97.5,92.5,-202.5,202.5,-210,202.5,465,63,Open,SBD,F,Raw
5,Cícera Tavares,1976,Brazil,62.74,167.5,175,-180,175,85,90,-92.5,90,185,192.5,-200,192.5,457.5,63,Open,SBD,F,Raw
6,Tanja Stenholdt Olsen,1990,Denmark,61.55,145,155,160,160,80,-85,85,85,175,190,-202.5,190,435,63,Open,SBD,F,Raw
7,Lara Lichtnecker,1992,Austria,61.82,145,152.5,157.5,157.5,85,-90,-90,85,170,180,-187.5,180,422.5,63,Open,SBD,F,Raw
8,Signe Elisabeth Belden,1983,Norway,62,147.5,155,-160,155,90,92.5,97.5,97.5,160,170,-180,170,422.5,63,Open,SBD,F,Raw
9,Stina Lindell,1988,Finland,62.3,142.5,147.5,-155,147.5,82.5,85,-87.5,85,152.5,165,170,170,402.5,63,Open,SBD,F,Raw
10,Sari Uski,1986,Finland,62.93,140,147.5,155,155,80,82.5,85,85,152.5,162.5,-167.5,162.5,402.5,63,Open,SBD,F,Raw
11,Safia Kouri,1974,Algeria,62.16,-145,145,150,150,60,67.5,70,70,165,-175,175,175,395,63,Open,SBD,F,Raw
12,Sandra Emonts,1988,Germany,59.89,127.5,132.5,135,135,75,-80,80,80,160,170,-175,170,385,63,Open,SBD,F,Raw
13,Anne Daineffe,1982,Belgium,62.16,130,-135,135,135,80,85,-87.5,85,145,-152.5,-152.5,145,365,63,Open,SBD,F,Raw
14,Kyoko Suzuki,1977,Japan,62.39,122.5,132.5,-137.5,132.5,65,-70,70,70,130,142.5,-152.5,142.5,345,63,Open,SBD,F,Raw
15,Tanya van Lill,1979,South Africa,61.77,125,-130,130,130,60,62.5,65,65,127.5,132.5,-137.5,132.5,327.5,63,Open,SBD,F,Raw
1,Ana Rosa Castellain,1985,Brazil,70.16,190,195,-197.5,195,-130,130,-135,130,192.5,200,-205,200,525,72,Open,SBD,F,Raw
2,Annika Zelander,1988,Sweden,71.62,182.5,-190,-190,182.5,120,125,-127.5,125,195,200,-220,200,507.5,72,Open,SBD,F,Raw
3,Rhaea Stinn,1988,Canada,71.81,-177.5,182.5,190,190,115,120,-122.5,120,172.5,182.5,187.5,187.5,497.5,72,Open,SBD,F,Raw
4,Barbra Auva'a,1993,New Zealand,70.46,175,180,185,185,92.5,97.5,102.5,102.5,190,200,-210,200,487.5,72,Open,SBD,F,Raw
5,Maria Letnes,1991,Norway,70.94,167.5,172.5,-177.5,172.5,115,117.5,-120,117.5,177.5,185,192.5,192.5,482.5,72,Open,SBD,F,Raw
6,Brónagh McPeake,1992,Ireland,67.06,165,-172.5,172.5,172.5,82.5,87.5,90,90,180,195,-205,195,457.5,72,Open,SBD,F,Raw
7,Louise Millar,1986,Ireland,71.55,160,167.5,-175,167.5,97.5,102.5,105,105,160,172.5,-180,172.5,445,72,Open,SBD,F,Raw
8,Annemari Løberg Larsen,1992,Norway,70.97,157.5,-165,165,165,70,-75,-75,70,192.5,202.5,-207.5,202.5,437.5,72,Open,SBD,F,Raw
9,Nina Kondrashyova,1960,Russia,71.12,142.5,152.5,157.5,157.5,92.5,-97.5,97.5,97.5,170,180,-190,180,435,72,Open,SBD,F,Raw
10,Annette Pedersen,1968,Denmark,69.61,120,130,135,135,95,-102.5,-102.5,95,175,187.5,197.5,197.5,427.5,72,Open,SBD,F,Raw
11,Yuka Okada,1992,Japan,70.85,135,140,145,145,75,80,-85,80,170,180,-187.5,180,405,72,Open,SBD,F,Raw
12,Arnhildur Anna Árnadóttir,1992,Iceland,71.31,147.5,150,152.5,152.5,80,-82.5,-82.5,80,160,-165,,160,392.5,72,Open,SBD,F,Raw
13,Ai Takeuchi,1989,Japan,68.69,150,-160,160,160,75,-80,80,80,135,145,-155,145,385,72,Open,SBD,F,Raw
14,Dina Power,1994,South Africa,71.23,130,-135,135,135,55,60,-62.5,60,150,162.5,175,175,370,72,Open,SBD,F,Raw
1,Daniella Melo,1998,USA,83.29,-200,200,213,213,117.5,125,127.5,127.5,210,220,230.5,230.5,571,84,Open,SBD,F,Raw
2,Sniazhana Zubko,1991,Belarus,79.93,192.5,200,205,205,97.5,102.5,105,105,205,212.5,222.5,222.5,532.5,84,Open,SBD,F,Raw
3,Ielja Strik,1973,Netherlands,83.42,195,-202.5,-202.5,195,130,135,-138,135,195,202.5,-205,202.5,532.5,84,Open,SBD,F,Raw
4,Sara Cowan,1995,Canada,81.36,-192.5,192.5,-197.5,192.5,105,110,-112.5,110,212.5,222.5,-230.5,222.5,525,84,Open,SBD,F,Raw
5,Sylvia Szarvas,1984,Germany,81.96,152.5,160,165,165,117.5,-125,125,125,170,180,190,190,480,84,Open,SBD,F,Raw
6,Takara Hawthorne-Smith,1991,UK,81.89,152.5,162.5,172.5,172.5,92.5,97.5,100,100,195,205,-207.5,205,477.5,84,Open,SBD,F,Raw
7,Iris Kensenhuis,1983,Netherlands,81.92,165,170,172.5,172.5,80,85,87.5,87.5,215,-225.5,-225.5,215,475,84,Open,SBD,F,Raw
8,Anne Karlsen,1992,Denmark,80.85,150,160,-165,160,85,-90,-90,85,187.5,202.5,-215,202.5,447.5,84,Open,SBD,F,Raw
9,Marina Almeida,1990,Brazil,78.79,150,157.5,162.5,162.5,82.5,87.5,-90,87.5,187.5,195,-207.5,195,445,84,Open,SBD,F,Raw
10,Siuea Cocker,1993,New Zealand,82.26,155,162.5,-167.5,162.5,-80,80,87.5,87.5,182.5,-195,-195,182.5,432.5,84,Open,SBD,F,Raw
11,Shannon Pollock,1987,Ireland,74.16,-147.5,155,160,160,77.5,80,82.5,82.5,170,177.5,182.5,182.5,425,84,Open,SBD,F,Raw
12,Ellen Ýr Jónsdóttir,1988,Iceland,81.97,160,167.5,-170,167.5,87.5,-92.5,-92.5,87.5,160,165,-167.5,165,420,84,Open,SBD,F,Raw
13,Lise Frederiksen,1982,Denmark,82.37,-145,145,-157.5,145,85,92.5,-95,92.5,170,-185,-185,170,407.5,84,Open,SBD,F,Raw
1,Bonica Brown,1988,USA,132.7,252.5,265,273,273,132.5,142.5,151.5,151.5,230,240.5,247,247,671.5,84+,Open,SBD,F,Raw
2,Theresa Simanu,1989,New Zealand,130.78,230,-240,-240,230,115,122.5,127.5,127.5,230,240,-250,240,597.5,84+,Open,SBD,F,Raw
3,Hailey Kostynuik,1992,Canada,131.51,-235,-235,235,235,115,120,122.5,122.5,210,220,225,225,582.5,84+,Open,SBD,F,Raw
4,Grecia Torres,1988,Mexico,110.76,210,-220,-220,210,-105,105,-110,105,-225,-225,230,230,545,84+,Open,SBD,F,Raw
5,Fang-Yun Su,1992,Taiwan,121.66,215,230,-235,230,115,120,122.5,122.5,175,182.5,190,190,542.5,84+,Open,SBD,F,Raw
6,Camille Holland,1988,UK,125.48,220,-230,232.5,232.5,105,112.5,115,115,165,175,180,180,527.5,84+,Open,SBD,F,Raw
7,Zuzana Bitterová,1984,Czechia,110.36,165,-175,-175,165,80,87.5,-90,87.5,145,155,-165,155,407.5,84+,Open,SBD,F,Raw
8,Touria Kendouci,1978,Algeria,116.18,150,160,-175,160,65,70,-72.5,70,150,165,170,170,400,84+,Open,SBD,F,Raw
1,Brianna Morrison,2001,USA,41.65,95,100.5,-103,100.5,52.5,57.5,61,61,100,105,110,110,271.5,43,Sub-Juniors,SBD,F,Raw
2,Veronica Ompod,2000,Philippines,43,90,-97.5,-97.5,90,50,-52.5,-52.5,50,110,-117.5,117.5,117.5,257.5,43,Sub-Juniors,SBD,F,Raw
3,Anastasiya Safina,2000,Russia,42.63,75,-80,-80,75,47.5,-50,50,50,122.5,130,-132.5,130,255,43,Sub-Juniors,SBD,F,Raw
1,Haruka Kani,2004,Japan,46.76,102.5,110,115,115,52.5,57.5,60,60,127.5,136,145.5,145.5,320.5,47,Sub-Juniors,SBD,F,Raw
2,Klaudia Poszwa,2000,Poland,46.51,102.5,-107.5,-107.5,102.5,47.5,-50,-50,47.5,120,127.5,-136.5,127.5,277.5,47,Sub-Juniors,SBD,F,Raw
1,Elizaveta Nikitina,2001,Russia,51.89,117.5,125,-130.5,125,60,65,70,70,122.5,130,135,135,330,52,Sub-Juniors,SBD,F,Raw
2,Heini Lipponen,2000,Finland,51.44,115,120,125,125,72.5,75,-77.5,75,115,120,125,125,325,52,Sub-Juniors,SBD,F,Raw
3,Anastasiia Malysheva,2000,Russia,51.1,-117.5,117.5,-122.5,117.5,60,62.5,-65,62.5,135,140,-145,140,320,52,Sub-Juniors,SBD,F,Raw
4,Christine Potter,2001,USA,51.32,95,102.5,-110,102.5,52.5,55,60,60,120,132.5,-143,132.5,295,52,Sub-Juniors,SBD,F,Raw
5,Nadzeya Tsiareshka,2001,Belarus,51.77,-95,95,-100,95,57.5,-60,-60,57.5,120,125,-130,125,277.5,52,Sub-Juniors,SBD,F,Raw
6,Celine Hein,2000,Germany,50.93,90,97.5,-100,97.5,47.5,52.5,-55,52.5,120,-130,-130,120,270,52,Sub-Juniors,SBD,F,Raw
7,Karen Tagaya,2001,Japan,50.21,85,-95,95,95,45,-52.5,-52.5,45,110,120,122.5,122.5,262.5,52,Sub-Juniors,SBD,F,Raw
8,Jaime Lei Fuller,2003,UK,50.99,80,85,90,90,45,50,52.5,52.5,90,95,100,100,242.5,52,Sub-Juniors,SBD,F,Raw
1,Miranda Chambers,2000,USA,55.84,130,-137.5,137.5,137.5,85,92.5,95,95,147.5,157.5,-165,157.5,390,57,Sub-Juniors,SBD,F,Raw
2,Fanny Lamminen,2002,Finland,55.94,142.5,147.5,152.5,152.5,75,80,82.5,82.5,132.5,137.5,142.5,142.5,377.5,57,Sub-Juniors,SBD,F,Raw
3,Ekaterina Nazarova,2000,Russia,56.42,115,122.5,127.5,127.5,65,70,72.5,72.5,115,125,132.5,132.5,332.5,57,Sub-Juniors,SBD,F,Raw
4,Marie-Li Dion,2000,Canada,55.06,102.5,107.5,110,110,70,75,-77.5,75,117.5,130,135,135,320,57,Sub-Juniors,SBD,F,Raw
5,Caitlin Poxon,2000,South Africa,56.87,107.5,110,112.5,112.5,55,-57.5,-57.5,55,115,120,-132.5,120,287.5,57,Sub-Juniors,SBD,F,Raw
6,Yui Hemmi,2001,Japan,56.96,85,-92.5,92.5,92.5,45,52.5,55,55,100,110,120,120,267.5,57,Sub-Juniors,SBD,F,Raw
7,Diana Nuriddinova,2001,Kazakhstan,55.11,65,-75,80,80,40,47.5,-55,47.5,75,90,100,100,227.5,57,Sub-Juniors,SBD,F,Raw
1,Yu Nomura,2000,Japan,62.21,120,122.5,130,130,72.5,77.5,-80,77.5,160,170,-180,170,377.5,63,Sub-Juniors,SBD,F,Raw
2,Emily Gardner,2000,USA,60.25,135,142.5,-146.5,142.5,77.5,80,82.5,82.5,135,142.5,-145,142.5,367.5,63,Sub-Juniors,SBD,F,Raw
3,Kateryna Tkachuk,2000,Ukraine,60.22,120,125,130,130,82.5,85,87.5,87.5,125,130,-150,130,347.5,63,Sub-Juniors,SBD,F,Raw
4,Ragna Gudbrandsdottir,2000,Iceland,62.97,120,125,-130,125,-62.5,62.5,65,65,120,125,130,130,320,63,Sub-Juniors,SBD,F,Raw
5,Viktoria Kotschwar,2001,Austria,62.22,102.5,107.5,-112.5,107.5,60,-65,-65,60,130,137.5,145,145,312.5,63,Sub-Juniors,SBD,F,Raw
1,Mariella Fisher,2000,UK,67.15,145,152.5,157.5,157.5,80,85,87.5,87.5,170,180,185,185,430,72,Sub-Juniors,SBD,F,Raw
2,Ida Lis,2000,Poland,66.21,-152.5,152.5,160,160,77.5,82.5,85,85,170,177.5,-182.5,177.5,422.5,72,Sub-Juniors,SBD,F,Raw
3,Nuša Železnik,2000,Slovenia,71.02,125,135,145,145,75,80,82.5,82.5,157.5,170,-175,170,397.5,72,Sub-Juniors,SBD,F,Raw
4,Julianna King,2000,USA,70.23,-137.5,-137.5,137.5,137.5,67.5,72.5,-75,72.5,155,-162.5,162.5,162.5,372.5,72,Sub-Juniors,SBD,F,Raw
5,Katia MacKenzie,2000,New Zealand,69.59,130,140,145,145,65,70,-75,70,130,142.5,147.5,147.5,362.5,72,Sub-Juniors,SBD,F,Raw
6,Aoi Matsumoto,2001,Japan,70.19,85,92.5,97.5,97.5,55,60,62.5,62.5,120,127.5,-130,127.5,287.5,72,Sub-Juniors,SBD,F,Raw
7,Momo Baum,2000,Japan,64.53,85,92.5,-97.5,92.5,42.5,47.5,52.5,52.5,107.5,120,132.5,132.5,277.5,72,Sub-Juniors,SBD,F,Raw
1,Danielle Ellington,2000,UK,82.24,140,150,-155,150,75,80,82.5,82.5,187.5,196,-200,196,428.5,84,Sub-Juniors,SBD,F,Raw
2,Emily Diaz,2001,USA,81.34,-147.5,147.5,-155,147.5,70,75,77.5,77.5,167.5,180,185,185,410,84,Sub-Juniors,SBD,F,Raw
3,Morgan Gilliam,2000,USA,80.65,137.5,147.5,155,155,65,70,75,75,160,172.5,-177.5,172.5,402.5,84,Sub-Juniors,SBD,F,Raw
4,Hana Onu,2000,Japan,80.89,120,-130,-130,120,67.5,72.5,77.5,77.5,160,172.5,-177.5,172.5,370,84,Sub-Juniors,SBD,F,Raw
5,Christie McCart,2000,UK,78.99,130,135,140,140,65,67.5,70,70,135,145,155,155,365,84,Sub-Juniors,SBD,F,Raw
6,Michaela Kanátová,2002,Czechia,78.3,140,-145,-145,140,62.5,67.5,-70,67.5,142.5,150,155,155,362.5,84,Sub-Juniors,SBD,F,Raw
1,Isabel Figueroa,2002,USA,103.2,160,170,182.5,182.5,75,85,-90,85,170,-182.5,-182.5,170,437.5,84+,Sub-Juniors,SBD,F,Raw
1,Zuzanna Kula,1999,Poland,42.32,92.5,-97.5,-97.5,92.5,55,-60,-60,55,107.5,112.5,115,115,262.5,43,Juniors,SBD,F,Raw
2,Sandra Tran,1995,USA,39.32,85,90,92.5,92.5,42.5,47.5,50,50,95,100,105,105,247.5,43,Juniors,SBD,F,Raw
1,Tetiana Shchavinska,1996,Ukraine,46.28,102.5,107.5,112.5,112.5,80,82.5,83,83,130,137.5,142.5,142.5,338,47,Juniors,SBD,F,Raw
2,Tatsiana Damashyna,1998,Belarus,46.59,110,115,117.5,117.5,57.5,60,62.5,62.5,125,130,132.5,132.5,312.5,47,Juniors,SBD,F,Raw
3,Alisa Zhilkina,1995,Russia,46.14,100,105,-107.5,105,67.5,72.5,75,75,120,122.5,130,130,310,47,Juniors,SBD,F,Raw
4,Emily Ho,1995,USA,46.64,117.5,-125,-125,117.5,65,-67.5,-67.5,65,115,-120,-125,115,297.5,47,Juniors,SBD,F,Raw
5,Paulina Szymanel,1995,Poland,46.11,100,-105,-107.5,100,60,-65,65,65,115,122.5,-130,122.5,287.5,47,Juniors,SBD,F,Raw
6,Kotchaphan Mai-On,1995,Ireland,46.84,80,85,-87.5,85,60,-65,-65,60,117.5,122.5,-127.5,122.5,267.5,47,Juniors,SBD,F,Raw
7,Anabela Gatto Maria,1998,Brazil,46.96,85,-90,90,90,45,50,52.5,52.5,95,-107.5,107.5,107.5,250,47,Juniors,SBD,F,Raw
1,Evie Corrigan,1996,New Zealand,51.8,-130,130,140.5,140.5,77.5,82.5,85,85,145,157.5,160,160,385.5,52,Juniors,SBD,F,Raw
2,Tiffany Sengsourigna,1995,Canada,51.14,125,132.5,-137.5,132.5,72.5,75,77.5,77.5,152.5,162.5,-175.5,162.5,372.5,52,Juniors,SBD,F,Raw
3,Shoko Onishi,1999,Japan,51.8,130,140,-145,140,55,-60,60,60,130,140,145,145,345,52,Juniors,SBD,F,Raw
4,Sophia Rizzuto,1996,USA,51.94,117.5,122.5,125,125,77.5,-82.5,-82.5,77.5,135,140,-142.5,140,342.5,52,Juniors,SBD,F,Raw
5,Sophie Démoré,1997,Canada,51.49,117.5,125,-130,125,55,57.5,60,60,132.5,-140,140,140,325,52,Juniors,SBD,F,Raw
6,Margaryta Turenko,1995,Ukraine,51.12,112.5,117.5,-122.5,117.5,67.5,-72.5,-72.5,67.5,120,127.5,-135,127.5,312.5,52,Juniors,SBD,F,Raw
7,Lea Kannowsky,1995,Germany,51.47,107.5,112.5,-117.5,112.5,65,70,-72.5,70,120,130,-135,130,312.5,52,Juniors,SBD,F,Raw
8,Tiarna Pearce,1996,UK,51.48,112.5,-117.5,-117.5,112.5,55,-60,-60,55,125,135,-145,135,302.5,52,Juniors,SBD,F,Raw
9,Shehnaz Hussain,1998,New Zealand,51.53,100,105,107.5,107.5,57.5,-60,-60,57.5,110,120,125,125,290,52,Juniors,SBD,F,Raw
1,Rachel Jones #1,1995,Australia,55,-147.5,147.5,-152.5,147.5,67.5,72.5,75,75,157.5,165,172.5,172.5,395,57,Juniors,SBD,F,Raw
2,Anna Elizarova,1995,Russia,56.99,135,140,-142.5,140,85,90,-92.5,90,155,162.5,-167.5,162.5,392.5,57,Juniors,SBD,F,Raw
3,Krista Määttä,1995,Finland,56.56,130,132.5,135,135,80,-82.5,-82.5,80,160,-175,-175,160,375,57,Juniors,SBD,F,Raw
4,Catherine Smith,1995,UK,54.76,-115,115,125,125,55,60,62.5,62.5,155,167.5,177,177,364.5,57,Juniors,SBD,F,Raw
5,Veronika Schulze,1997,Germany,55.37,125,130,135,135,70,-75,75,75,142.5,150,152.5,152.5,362.5,57,Juniors,SBD,F,Raw
6,Elspeth McLeod,1995,UK,56.77,115,122.5,127.5,127.5,75,80,-82.5,80,-147.5,147.5,-167.5,147.5,355,57,Juniors,SBD,F,Raw
7,Katrine Sundal Haune,1995,Norway,56.9,127.5,132.5,,132.5,85,-87.5,-87.5,85,130,-135,,130,347.5,57,Juniors,SBD,F,Raw
8,Diana Martinez,1997,Mexico,54.32,-110,-115,115,115,52.5,57.5,-62.5,57.5,145,155,160,160,332.5,57,Juniors,SBD,F,Raw
9,Samantha Kroll,1997,USA,56.49,97.5,102.5,105,105,75,77.5,80,80,127.5,135,137.5,137.5,322.5,57,Juniors,SBD,F,Raw
10,Megan Leighton,1996,South Africa,56.56,-110,110,-115,110,-62.5,62.5,65,65,125,135,-150,135,310,57,Juniors,SBD,F,Raw
11,Veronika Opočenská,1999,Czechia,56.6,95,102.5,110,110,52.5,57.5,60,60,115,125,130,130,300,57,Juniors,SBD,F,Raw
1,Solana Lewis,1996,USA,61.61,145,152.5,157.5,157.5,70,75,77.5,77.5,180,190,-195,190,425,63,Juniors,SBD,F,Raw
2,Sofiya Rud,1997,Ukraine,61.78,-140,140,142.5,142.5,82.5,87.5,90,90,170,177.5,182.5,182.5,415,63,Juniors,SBD,F,Raw
3,Abigail Looi,1995,Singapore,62.84,147.5,155,160,160,72.5,77.5,-80,77.5,157.5,170,177.5,177.5,415,63,Juniors,SBD,F,Raw
4,Lorraine Yeung,1995,Canada,62.1,140,-147.5,-147.5,140,65,70,72.5,72.5,165,175,182.5,182.5,395,63,Juniors,SBD,F,Raw
5,Moa Wikner,1995,UK,62.25,130,135,137.5,137.5,82.5,85,-87.5,85,162.5,172.5,-177.5,172.5,395,63,Juniors,SBD,F,Raw
6,Emily Lloyd Whittington,1997,UK,62.39,-140,-140,140,140,72.5,75,77.5,77.5,165,177.5,-185,177.5,395,63,Juniors,SBD,F,Raw
7,Justine Maltais,1996,Canada,62.9,130,140,-145,140,85,90,92.5,92.5,142.5,152.5,160,160,392.5,63,Juniors,SBD,F,Raw
8,Tuulia Lohivuo,1997,Finland,62.93,-135,135,140,140,90,-92.5,-92.5,90,157.5,-162.5,-162.5,157.5,387.5,63,Juniors,SBD,F,Raw
9,Amie Limbrick,1995,New Zealand,62.42,122.5,-127.5,-130,122.5,77.5,82.5,87.5,87.5,150,160,170,170,380,63,Juniors,SBD,F,Raw
10,Aoife O'Sullivan,1995,Ireland,62.07,115,120,125,125,60,65,,65,150,-160,160,160,350,63,Juniors,SBD,F,Raw
11,Ayaka Tsutsumi,1995,Japan,62.53,125,135,-140,135,62.5,67.5,72.5,72.5,-140,140,-160,140,347.5,63,Juniors,SBD,F,Raw
12,Maria Santin,1995,Mexico,62.35,105,112.5,115,115,47.5,52.5,57.5,57.5,127.5,140,142.5,142.5,315,63,Juniors,SBD,F,Raw
DQ,Stephanie Hewitt,1995,Ireland,61.32,-105,-105,-105,,62.5,67.5,-70,67.5,135,140,,140,,63,Juniors,SBD,F,Raw
1,Jessica Buettner,1995,Canada,71.68,167.5,176,181.5,181.5,87.5,92.5,95,95,207.5,217.5,227.5,227.5,504,72,Juniors,SBD,F,Raw
2,Vilma Olsson,1999,Sweden,71.1,165,172.5,177.5,177.5,100,107.5,-110,107.5,170,180,187.5,187.5,472.5,72,Juniors,SBD,F,Raw
3,Kloie Doublin,1999,USA,71.11,142.5,155,-165,155,102.5,110,115,115,162.5,172.5,185,185,455,72,Juniors,SBD,F,Raw
4,Dina Lorentzen,1999,Norway,69.52,135,142.5,-147.5,142.5,82.5,-87.5,87.5,87.5,160,167.5,175,175,405,72,Juniors,SBD,F,Raw
5,Abigail McLean,1998,UK,71.58,142.5,-147.5,147.5,147.5,72.5,75,77.5,77.5,180,-187.5,-187.5,180,405,72,Juniors,SBD,F,Raw
6,Alisa Samountry,1996,New Zealand,69.88,130,-135,135,135,70,72.5,75,75,170,182.5,190,190,400,72,Juniors,SBD,F,Raw
7,Sandra Augustiniok,1999,Germany,68.18,135,140,145,145,85,90,-92.5,90,155,160,162.5,162.5,397.5,72,Juniors,SBD,F,Raw
8,Camille Tremblay,1998,Canada,71.84,-160,160,-176.5,160,75,80,85,85,152.5,-162.5,-162.5,152.5,397.5,72,Juniors,SBD,F,Raw
9,Klára Zmeškalová,1997,Czechia,68.19,137.5,-145,-145,137.5,65,70,-75,70,155,162.5,170,170,377.5,72,Juniors,SBD,F,Raw
10,Matthildur Óskarsdóttir,1999,Iceland,70.57,135,140,-145,140,90,92.5,95,95,142.5,-150,-150,142.5,377.5,72,Juniors,SBD,F,Raw
1,Chrystal Williams,1995,UK,82.57,-177.5,177.5,-185,177.5,100,105,107.5,107.5,200,210,-215.5,210,495,84,Juniors,SBD,F,Raw
2,Gina Hensley,1995,USA,76.85,-165,-165,165,165,92.5,97.5,100,100,165,175,185,185,450,84,Juniors,SBD,F,Raw
3,Isabelle Feteris,1995,Netherlands,83.65,140,150,157.5,157.5,95,100,-102.5,100,175,185,-195,185,442.5,84,Juniors,SBD,F,Raw
4,Olivia Lim,1996,Canada,83.63,150,160,-167.5,160,80,85,-87.5,85,190,-207.5,-207.5,190,435,84,Juniors,SBD,F,Raw
5,Karoline Tanche-Larsen,1995,Norway,83.78,-160,160,167.5,167.5,90,97.5,-102.5,97.5,160,167.5,-177.5,167.5,432.5,84,Juniors,SBD,F,Raw
6,Sandra Persson,1995,Norway,73.59,137.5,147.5,152.5,152.5,-75,75,-77.5,75,165,172.5,-182.5,172.5,400,84,Juniors,SBD,F,Raw
1,LeeAnn Hewitt,1999,USA,150.15,-210,210,227.5,227.5,90,95,-100,95,210,220,227.5,227.5,550,84+,Juniors,SBD,F,Raw
2,Charlie Chester,1996,UK,110.07,175,187.5,-195,187.5,90,95,-100,95,150,160,180,180,462.5,84+,Juniors,SBD,F,Raw
3,Sarah Gardiner,1997,Ireland,97.23,140,145,147.5,147.5,75,-77.5,77.5,77.5,150,157.5,162.5,162.5,387.5,84+,Juniors,SBD,F,Raw
4,Aoife O'Leary,1996,Ireland,89.03,-140,145,150,150,52.5,57.5,-60,57.5,160,170,177.5,177.5,385,84+,Juniors,SBD,F,Raw
5,Saara Puusaari,1997,Finland,89.58,135,-145,147.5,147.5,60,65,70,70,-145,-145,145,145,362.5,84+,Juniors,SBD,F,Raw
1,Mariska Casey,1978,South Africa,46.8,85,90,95,95,-65,65,67.5,67.5,115,125,142.5,142.5,305,47,Masters 1,SBD,F,Raw
2,Lisa Rothman,1975,USA,46.73,100,105,110,110,60,62.5,-65,62.5,130,-135,-135,130,302.5,47,Masters 1,SBD,F,Raw
1,Ellissa Hull,1972,Canada,50.31,120,125,-127.5,125,60,65,-67.5,65,150,157.5,-160,157.5,347.5,52,Masters 1,SBD,F,Raw
2,Muneyong Van Luen,1976,USA,51.3,127.5,132.5,135,135,65,67.5,70,70,137.5,142.5,-150,142.5,347.5,52,Masters 1,SBD,F,Raw
3,Shelley Sandiford,1970,Canada,50.76,97.5,102.5,-105,102.5,62.5,65,-67.5,65,145,155,160,160,327.5,52,Masters 1,SBD,F,Raw
4,Shanny Segade,1976,Brazil,51.68,105,110,-112.5,110,72.5,77.5,-80,77.5,130,-135,-137.5,130,317.5,52,Masters 1,SBD,F,Raw
5,Louise Sinniah-Burr,1978,UK,51.04,92.5,-100,-100,92.5,62.5,-67.5,67.5,67.5,140,150,-157.5,150,310,52,Masters 1,SBD,F,Raw
6,Christine Rebello,1972,Netherlands,51.24,100,-107.5,-107.5,100,57.5,62.5,-65,62.5,130,140,-150,140,302.5,52,Masters 1,SBD,F,Raw
7,Parul Singhal,1974,India,49.98,-60,-60,60,60,37.5,-40,-40,37.5,105,112.5,-117.5,112.5,210,52,Masters 1,SBD,F,Raw
DQ,Bérangère Cottret,1975,France,50.88,85,92.5,-100,92.5,-45,-45,-45,,90,100,110,110,,52,Masters 1,SBD,F,Raw
1,Brigot Pugh,1975,Australia,55.33,120,-132.5,-132.5,120,70,75,-77.5,75,170,180,187.5,187.5,382.5,57,Masters 1,SBD,F,Raw
2,Julie Dahle,1978,Norway,56.96,130,-135,135,135,85,87.5,-90,87.5,130,-137.5,140,140,362.5,57,Masters 1,SBD,F,Raw
3,Carina Hedberg,1976,Sweden,56.27,125,130,-132.5,130,85,-87.5,87.5,87.5,142.5,-147.5,-147.5,142.5,360,57,Masters 1,SBD,F,Raw
4,Heather Ayles,1971,Canada,56.75,107.5,117.5,122.5,122.5,67.5,72.5,75,75,130,140,145,145,342.5,57,Masters 1,SBD,F,Raw
1,Cass Pickard,1974,Australia,62.21,142.5,-147.5,147.5,147.5,-72.5,72.5,75,75,185,-192.5,195,195,417.5,63,Masters 1,SBD,F,Raw
2,Abi Graham,1978,UK,61.51,120,130,135,135,80,85,90,90,165,175,185,185,410,63,Masters 1,SBD,F,Raw
3,Jo Ann Aita,1970,USA,61.37,135,140,142.5,142.5,77.5,-82.5,82.5,82.5,162.5,-172.5,-182.5,162.5,387.5,63,Masters 1,SBD,F,Raw
4,Zoe Deeks,1975,Australia,62.39,125,127.5,130,130,85,90,-92.5,90,145,152.5,-160,152.5,372.5,63,Masters 1,SBD,F,Raw
5,Holly Lasante,1971,Canada,62.29,117.5,-125,125,125,-62.5,62.5,65,65,140,150,157.5,157.5,347.5,63,Masters 1,SBD,F,Raw
6,Daniela Falck,1975,Germany,62.57,115,120,-125,120,67.5,72.5,-75,72.5,145,155,-160,155,347.5,63,Masters 1,SBD,F,Raw
7,Marjaana Vähäsantanen,1976,Finland,62.64,130,-132.5,-132.5,130,70,72.5,-75,72.5,135,140,-145,140,342.5,63,Masters 1,SBD,F,Raw
8,Edita Kanátová,1974,Czechia,61.93,115,122.5,-125,122.5,60,62.5,-65,62.5,140,150,-155,150,335,63,Masters 1,SBD,F,Raw
9,Sarah Meunier,1978,France,61.75,100,-105,-105,100,65,70,-72.5,70,120,-127.5,-127.5,120,290,63,Masters 1,SBD,F,Raw
10,Stéphanie Carion,1974,France,58.46,80,85,-90,85,80,-85,-85,80,100,110,115,115,280,63,Masters 1,SBD,F,Raw
11,Vanessa Lessing,1978,South Africa,61.1,80,-85,85,85,45,50,-52.5,50,110,117.5,127.5,127.5,262.5,63,Masters 1,SBD,F,Raw
1,Eno Majomi,1974,UK,70.33,160,-165,165,165,85,90,-95,90,170,180,185,185,440,72,Masters 1,SBD,F,Raw
2,Vicky Taylor-Hood,1975,Canada,71.29,-155,155,-162.5,155,75,82.5,-87.5,82.5,180,-192.5,-192.5,180,417.5,72,Masters 1,SBD,F,Raw
3,Christine Kluge,1974,Canada,69.37,137.5,145,147.5,147.5,87.5,-90,-92.5,87.5,170,-177.5,-177.5,170,405,72,Masters 1,SBD,F,Raw
4,Audria Butler,1978,USA,69.55,142.5,150,157.5,157.5,85,90,95,95,140,150,-165,150,402.5,72,Masters 1,SBD,F,Raw
5,Maria De Lourdes Sousa,1977,Brazil,71.47,130,137.5,-145,137.5,-82.5,82.5,-87.5,82.5,140,150,-155,150,370,72,Masters 1,SBD,F,Raw
6,Debbie McAlpine,1976,South Africa,69.91,125,130,-135,130,57.5,-62.5,-62.5,57.5,122.5,127.5,132.5,132.5,320,72,Masters 1,SBD,F,Raw
7,Gaenor Cripps,1976,South Africa,69.21,85,-92.5,-92.5,85,47.5,-50,-50,47.5,125,137.5,150,150,282.5,72,Masters 1,SBD,F,Raw
1,Alicia Webb,1971,USA,83.83,182.5,-200,200,200,105,110,112.5,112.5,180,190,197.5,197.5,510,84,Masters 1,SBD,F,Raw
2,Karen Tvedt,1977,Norway,81.38,167.5,177.5,182.5,182.5,85,90,92.5,92.5,-167.5,175,-185,175,450,84,Masters 1,SBD,F,Raw
3,April Grey,1977,USA,83.54,-157.5,157.5,-165,157.5,90,92.5,95,95,175,187.5,-190,187.5,440,84,Masters 1,SBD,F,Raw
4,Piia Valkonen,1973,Finland,83.21,140,147.5,-152.5,147.5,80,85,-90,85,150,165,-170,165,397.5,84,Masters 1,SBD,F,Raw
5,Jenni Sherwood #1,1973,UK,82.33,130,140,-150,140,65,72.5,-77.5,72.5,170,180,-192.5,180,392.5,84,Masters 1,SBD,F,Raw
6,Laufey Agnarsdóttir,1973,Iceland,83.12,132.5,137.5,-140,137.5,90,92.5,95,95,150,155,160,160,392.5,84,Masters 1,SBD,F,Raw
7,Pia Marangoni,1978,South Africa,80.95,135,137.5,142.5,142.5,52.5,57.5,60,60,145,-152.5,-160,145,347.5,84,Masters 1,SBD,F,Raw
8,Fiona Park,1977,New Zealand,81.34,110,-122.5,130,130,65,70,-75,70,130,142.5,-152.5,142.5,342.5,84,Masters 1,SBD,F,Raw
9,Kristina Grimstad Nordstrand,1978,Norway,80.25,115,120,125,125,70,-75,75,75,130,140,-150,140,340,84,Masters 1,SBD,F,Raw
10,Jodi Poxon,1975,South Africa,78.15,95,100,-107.5,100,55,-57.5,57.5,57.5,120,127.5,130,130,287.5,84,Masters 1,SBD,F,Raw
1,Melissa Copeland,1977,USA,93.55,185,192.5,195,195,100,105,107.5,107.5,187.5,195,-200,195,497.5,84+,Masters 1,SBD,F,Raw
2,Anjeannette Wynands,1976,Canada,114.37,160,172.5,-185,172.5,92.5,-95,-95,92.5,202.5,212.5,-233,212.5,477.5,84+,Masters 1,SBD,F,Raw
3,Jo Whiteley,1970,UK,123.36,177.5,187.5,-192.5,187.5,85,90,92.5,92.5,180,-190,190,190,470,84+,Masters 1,SBD,F,Raw
4,Tracy O'Callaghan,1978,UK,97.47,182.5,-190,190,190,82.5,-87.5,-87.5,82.5,185,-192.5,-197.5,185,457.5,84+,Masters 1,SBD,F,Raw
1,Nathalie Feraud,1967,France,46.95,92.5,97.5,-100,97.5,62.5,65,-67.5,65,112.5,120,-127.5,120,282.5,47,Masters 2,SBD,F,Raw
2,Shyami Murphy,1966,USA,46.49,97.5,102.5,-105,102.5,42.5,45,-47.5,45,102.5,110,117.5,117.5,265,47,Masters 2,SBD,F,Raw
3,Noriko Tsuji,1964,Japan,46.38,90,95,-100,95,55,57.5,-60,57.5,-110,110,-120,110,262.5,47,Masters 2,SBD,F,Raw
4,Marnel Spencer,1962,Canada,46.04,80,85,-87.5,85,50,52.5,55,55,100,110,-117.5,110,250,47,Masters 2,SBD,F,Raw
1,Suzanne Hartwig-Gary,1968,USA,51.12,137.5,145,152.5,152.5,70.5,75.5,80.5,80.5,145,152.5,158,158,391,52,Masters 2,SBD,F,Raw
2,Jayne Egan,1963,Canada,51.34,97.5,105,107.5,107.5,57.5,62.5,-65,62.5,122.5,130,-135,130,300,52,Masters 2,SBD,F,Raw
3,Carol Anthony,1966,South Africa,51.93,75,80,82.5,82.5,40,42.5,45,45,120,125,-132.5,125,252.5,52,Masters 2,SBD,F,Raw
4,Véronique Gaillard,1966,France,51.06,92.5,97.5,102.5,102.5,47.5,50,-52.5,50,95,-100,-100,95,247.5,52,Masters 2,SBD,F,Raw
1,Femmy Ayegun,1962,Australia,53.11,105,110,112.5,112.5,-72.5,72.5,-75,72.5,152.5,157.5,160,160,345,57,Masters 2,SBD,F,Raw
2,Antoinette Kemper,1964,USA,56.39,115,123.5,125.5,125.5,67.5,72.5,-75,72.5,127.5,137.5,-145,137.5,335.5,57,Masters 2,SBD,F,Raw
3,Jody McPeak,1968,Canada,55.39,-107.5,107.5,115,115,60,62.5,65,65,127.5,135,140,140,320,57,Masters 2,SBD,F,Raw
4,Samantha Devlin,1965,UK,55.65,80,-90,90,90,45,50,55,55,110,115,-120,115,260,57,Masters 2,SBD,F,Raw
1,Elena Lutsenko,1963,Russia,62.73,117.5,125,130,130,91,95.5,,95.5,137.5,145,150,150,375.5,63,Masters 2,SBD,F,Raw
2,Cathleen Mele,1966,USA,61.57,102.5,107.5,110,110,65,72.5,-75,72.5,160,170,-176,170,352.5,63,Masters 2,SBD,F,Raw
3,Kim Wilson,1968,USA,62.11,97.5,-105,-105,97.5,62.5,67.5,72.5,72.5,160,-175,-176.5,160,330,63,Masters 2,SBD,F,Raw
4,Lynda Banks,1965,UK,62.55,102.5,110,112.5,112.5,57.5,62.5,-65,62.5,135,-145,145,145,320,63,Masters 2,SBD,F,Raw
5,Daisy Blondan,1959,France,62.25,95,100,-105,100,72.5,75,-77.5,75,130,135,-137.5,135,310,63,Masters 2,SBD,F,Raw
6,Kelly Wharton,1962,Canada,60,95,97.5,102.5,102.5,50,52.5,-55,52.5,115,120,127.5,127.5,282.5,63,Masters 2,SBD,F,Raw
7,Sandy Bellan-Miron,1961,Canada,61.75,87.5,92.5,95,95,42.5,47.5,-50,47.5,122.5,-132.5,-132.5,122.5,265,63,Masters 2,SBD,F,Raw
1,Charlotte Esbjørn,1968,Denmark,70.37,140,-145,-145,140,82.5,87.5,90,90,170,177.5,-185,177.5,407.5,72,Masters 2,SBD,F,Raw
2,Karen Barry,1966,Ireland,70.18,140,-150,150,150,82.5,87.5,90,90,150,155,-157.5,155,395,72,Masters 2,SBD,F,Raw
3,Joy Mineo,1967,UK,68.4,115,122.5,-125,122.5,72.5,-75,-75,72.5,162.5,170,-175,170,365,72,Masters 2,SBD,F,Raw
4,Ana Couto,1966,Brazil,69.58,110,-115,-115,110,80,-88,-90,80,155,165,170,170,360,72,Masters 2,SBD,F,Raw
5,Livy Laure Romain,1967,France,68,-120,120,-125,120,55,60,-62.5,60,135,142.5,-145,142.5,322.5,72,Masters 2,SBD,F,Raw
6,Marion Tanzer,1968,South Africa,70.62,92.5,97.5,-102.5,97.5,50,55,-57.5,55,120,130,-135,130,282.5,72,Masters 2,SBD,F,Raw
1,Felicia Greenidge,1965,Canada,81.75,142.5,145,147.5,147.5,75,77.5,80,80,170,175,-182.5,175,402.5,84,Masters 2,SBD,F,Raw
2,Lee Lipsitz,1964,USA,78.51,135,142.5,145,145,72.5,77.5,80,80,157.5,170,-180,170,395,84,Masters 2,SBD,F,Raw
3,Helen Twomey,1967,Ireland,77.82,120,127.5,130,130,72.5,75,77.5,77.5,170,177.5,-182,177.5,385,84,Masters 2,SBD,F,Raw
4,Julie Henderson,1966,Australia,81.67,120,-132.5,132.5,132.5,70,72.5,-77.5,72.5,140,147.5,155,155,360,84,Masters 2,SBD,F,Raw
5,Marie Ahlsten,1965,Sweden,78.45,125,130,132.5,132.5,65,70,-75,70,130,140,147.5,147.5,350,84,Masters 2,SBD,F,Raw
6,Anne Hellem,1961,Norway,83.18,105,110,115,115,-57.5,57.5,60,60,130,-140,,130,305,84,Masters 2,SBD,F,Raw
1,Judith Reitmann,1967,Uruguay,94.05,177.5,-190,-190,177.5,100,102.5,105,105,175,182.5,-187.5,182.5,465,84+,Masters 2,SBD,F,Raw
2,Bonney Rempel,1967,Canada,107.7,165,-172.5,-172.5,165,100,105,107.5,107.5,165,175,-182.5,175,447.5,84+,Masters 2,SBD,F,Raw
3,Sigþrúður Erla Arnarsdóttir,1965,Iceland,113.34,155,160,165,165,87.5,90,92.5,92.5,160,170,177.5,177.5,435,84+,Masters 2,SBD,F,Raw
4,Libby Blair,1967,UK,117.31,-137.5,137.5,147.5,147.5,70,75,77.5,77.5,-175,185,190,190,415,84+,Masters 2,SBD,F,Raw
5,Susan Hines,1967,USA,89.85,-142.5,142.5,-147.5,142.5,70,75,77.5,77.5,150,155,-160,155,375,84+,Masters 2,SBD,F,Raw
6,Véronique Auclair,1968,France,98.11,105,110,-115,110,65,67.5,70,70,125,130,-132.5,130,310,84+,Masters 2,SBD,F,Raw
1,Marina Cornwall,1954,UK,43.81,65,67.5,72.5,72.5,35,37.5,40,40,105,112.5,-123.5,112.5,225,47,Masters 3,SBD,F,Raw
2,Naomi Seto,1956,Japan,46.22,57.5,62.5,70,70,32.5,37.5,-40,37.5,90,-100,100,100,207.5,47,Masters 3,SBD,F,Raw
1,Vuokko Viitasaari,1954,Finland,51.99,95,105,115.5,115.5,50,55,57.5,57.5,125,135,-150.5,135,308,52,Masters 3,SBD,F,Raw
2,Marlene Perez,1954,USA,50.68,90,95,100,100,-60,60,-65,60,102.5,110,115,115,275,52,Masters 3,SBD,F,Raw
3,Aiko Ishibashi,1953,Japan,48.51,82.5,-87.5,87.5,87.5,55,57.5,60,60,95,100,105,105,252.5,52,Masters 3,SBD,F,Raw
1,Edith Guennec,1956,France,56.22,105,-110,-110,105,50,55,-57.5,55,152.5,-156,-156,152.5,312.5,57,Masters 3,SBD,F,Raw
2,Jenny Hunter,1958,UK,54.03,72.5,82.5,87.5,87.5,60.5,66,68.5,68.5,112.5,122.5,130,130,286,57,Masters 3,SBD,F,Raw
3,Denise Thomas,1950,USA,55.35,-82.5,82.5,85,85,40,45,47.5,47.5,107.5,115,-125,115,247.5,57,Masters 3,SBD,F,Raw
4,Kim Crumpton,1955,Canada,55.75,65,70,-75,70,52.5,55,-57.5,55,112.5,120,-127.5,120,245,57,Masters 3,SBD,F,Raw
1,Cathleen Marksteiner,1958,USA,61.8,90,97.5,102.5,102.5,65,70.5,73,73,120,130,135.5,135.5,311,63,Masters 3,SBD,F,Raw
2,Deb Ellard,1958,Canada,61.72,102.5,-110,110,110,60,65,-67.5,65,117.5,125,-132.5,125,300,63,Masters 3,SBD,F,Raw
3,Susan Farrell #1,1951,South Africa,60.53,87.5,92.5,95,95,45,-47.5,-50,45,120,127.5,132.5,132.5,272.5,63,Masters 3,SBD,F,Raw
4,Allison Bernard-Mahadeo,1955,Canada,60.77,85,87.5,95,95,42.5,45,47.5,47.5,115,120,130,130,272.5,63,Masters 3,SBD,F,Raw
1,Alma Kimura,1954,USA,69.65,102.5,110,-116,110,47.5,52.5,-57.5,52.5,135,142.5,-146,142.5,305,72,Masters 3,SBD,F,Raw
2,Mava Brydges,1957,Canada,71.79,87.5,92.5,97.5,97.5,55,60,-62.5,60,100,107.5,-115,107.5,265,72,Masters 3,SBD,F,Raw
3,Régine Billard,1955,France,67.12,65,70,-72.5,70,37.5,-40,-40,37.5,102.5,-107.5,-107.5,102.5,210,72,Masters 3,SBD,F,Raw
1,Janice Francis,1955,USA,81.91,105,-110,110,110,60,65,67.5,67.5,137.5,145,152.5,152.5,330,84,Masters 3,SBD,F,Raw
2,Stephanie Needham,1957,Canada,81.36,90,97.5,105,105,65,67.5,-70,67.5,122.5,132.5,137.5,137.5,310,84,Masters 3,SBD,F,Raw
3,Yvonne Sinclair,1950,New Zealand,74.78,95,105,-110,105,45,52.5,-60,52.5,130,140,-142.5,140,297.5,84,Masters 3,SBD,F,Raw
4,Roxanne Lord,1956,USA,82.3,105,115,-117.5,115,52.5,-57.5,-57.5,52.5,115,122.5,130,130,297.5,84,Masters 3,SBD,F,Raw
5,Arlene van Diepen,1957,Canada,77.71,95,-97.5,97.5,97.5,50,52.5,55,55,132.5,135,137.5,137.5,290,84,Masters 3,SBD,F,Raw
1,Sandra Nase,1957,Canada,102.14,100,107.5,115,115,52.5,55,57.5,57.5,147.5,160.5,-163,160.5,333,84+,Masters 3,SBD,F,Raw
2,Marit Pettersen,1954,Norway,91.29,112.5,120,122.5,122.5,60,-62.5,-62.5,60,140,147.5,-152.5,147.5,330,84+,Masters 3,SBD,F,Raw
3,Marsha Morrison,1955,USA,92.89,-90,-90,90,90,60,65,-67.5,65,-120,120,127.5,127.5,282.5,84+,Masters 3,SBD,F,Raw
1,Susan Elwyn,1947,USA,45.87,75,-82.5,85,85,32.5,37.5,40,40,112.5,120,-125,120,245,47,Masters 4,SBD,F,Raw
1,Joyce Aiazzi,1946,USA,48.67,55,62.5,67.5,67.5,47.5,-62.5,-62.5,47.5,90,92.5,95,95,210,52,Masters 4,SBD,F,Raw
1,Sandra Simmons,1948,USA,56.14,-70,-70,70,70,40,42.5,45,45,-97.5,-97.5,97.5,97.5,212.5,57,Masters 4,SBD,F,Raw
1,Ina Koolhaas-Revers,1947,Netherlands,59.75,85,90,-92.5,90,55,57.5,-60,57.5,125,130,133,133,280.5,63,Masters 4,SBD,F,Raw
2,Helen White,1945,USA,61.2,77.5,82.5,-85,82.5,57.5,60.5,-61.5,60.5,115,122.5,-125,122.5,265.5,63,Masters 4,SBD,F,Raw
1,Sandra Kasabuske,1948,USA,66.31,65,72.5,75,75,35,40,-42.5,40,92.5,100,107.5,107.5,222.5,72,Masters 4,SBD,F,Raw
2,Anne Mari Clausen,1942,Norway,71.96,60,65,67.5,67.5,-42.5,42.5,45,45,80,87.5,92.5,92.5,205,72,Masters 4,SBD,F,Raw
1,Nan Haynes,1940,USA,92.74,75,80,82.5,82.5,52.5,55,-60,55,102.5,107.5,112.5,112.5,250,84+,Masters 4,SBD,F,Raw
2,Shirley Webb,1937,USA,97.52,40,50,-60,50,37.5,-42.5,-42.5,37.5,100,110,112.5,112.5,200,84+,Masters 4,SBD,F,Raw
