Name,BirthDate,Age,Sex,Equipment,Division,BodyweightKg,WeightClassKg,Squat1Kg,Squat2Kg,Squat3Kg,Squat4Kg,Best3SquatKg,Bench1Kg,Bench2Kg,Bench3Kg,Bench4Kg,Best3BenchKg,Deadlift1Kg,Deadlift2Kg,Deadlift3Kg,Deadlift4Kg,Best3DeadliftKg,TotalKg,Event,Tested,Place
Lindsay Seamans,,34,F,Single-ply,F-OF-SP-T,51.44,52,125,140,145,,145,62.5,-65,-65,,62.5,135,140,145,,145,352.5,SBD,Yes,1
Anna Cullum,,27,F,Raw,F-OF-R-T,59.69,60,95,100,110,,110,47.5,52.5,55,,55,102.5,112.5,120,,120,285,SBD,Yes,1
Leslie Kutner,,29,F,Raw,F-OF-R-T,65.5,67.5,120,127.5,137.5,,137.5,72.5,77.5,82.5,,82.5,150,160,167.5,172.5,167.5,387.5,SBD,Yes,1
Gabby Robbins,,29,F,Raw,F-OF-R-T,80.56,82.5,125,132.5,142.5,,142.5,82.5,87.5,92.5,,92.5,157.5,172.5,180,,180,415,SBD,Yes,2
Vann Duffie,,30,M,Raw,M-OF-R-T,77.11,82.5,185,195,205,,205,127.5,132.5,137.5,,137.5,227.5,247.5,260,,260,602.5,SBD,Yes,1
Gabby Robbins,,29,F,Raw,F-MPFF-R-X,80.56,82.5,125,132.5,142.5,,142.5,82.5,87.5,92.5,,92.5,157.5,172.5,180,,180,415,SBD,Yes,1
Cathy Cranford,,59,F,Wraps,F-M4F-RC-X,79.79,82.5,65,67.5,70,75,70,40,-42.5,42.5,,42.5,85,87.5,92.5,97.5,92.5,205,SBD,Yes,1
Travis Johnson,,19,M,Raw,M-T3F-R-X,45.31,52,80,-87.5,87.5,,87.5,52.5,-57.5,-57.5,,52.5,107.5,112.5,117.5,-122.5,117.5,257.5,SBD,Yes,1
Nathan Taylor,,19,M,Raw,M-T3F-R-X,73.75,75,135,142.5,147.5,,147.5,102.5,110,115,,115,137.5,150,157.5,,157.5,420,SBD,Yes,2
Wyatt Plyler,,18,M,Raw,M-T3F-R-X,72.85,75,137.5,145,150,,150,85,90,-92.5,,90,170,177.5,180,,180,420,SBD,Yes,1
Justin Williams #1,,26,M,Wraps,M-OF-RC-T,83.32,90,245,-260,260,,260,150,160,-165,,160,250,-262.5,-262.5,,250,670,SBD,Yes,1
Zachary Leonardo,,31,M,Wraps,M-OF-RC-T,123.79,125,250,272.5,295,,295,160,172.5,182.5,,182.5,250,295,317.5,,317.5,795,SBD,Yes,1
Joshua Sisk,,20,M,Raw,M-OF-R-T,66.77,67.5,162.5,170,182.5,,182.5,97.5,102.5,,,102.5,205,217.5,-227.5,,217.5,502.5,SBD,Yes,1
Pauley Singh,,30,M,Wraps,M-NF-RC-X,96.16,100,202.5,215,227.5,,227.5,125,132.5,137.5,,137.5,227.5,240,-250,,240,605,SBD,Yes,2
Edwin Byler,,20,M,Wraps,M-NF-RC-X,94.57,100,217.5,240,-250,,240,127.5,140,-150,,140,255,265,-275,,265,645,SBD,Yes,1
Kristopher Lewis,,28,M,Wraps,M-NF-RC-X,120.2,125,215,225,230,,230,120,130,-137.5,,130,207.5,220,,,220,580,SBD,Yes,1
Charlie Wyrick,,20,M,Raw,M-NF-R-X,81.37,82.5,165,175,-182.5,,175,107.5,115,-122.5,,115,175,187.5,192.5,,192.5,482.5,SBD,Yes,1
Jared Decker,,31,M,Raw,M-NF-R-X,88.9,90,200,210,220,,220,150,157.5,-165,,157.5,237.5,250,260,,260,637.5,SBD,Yes,1
Mason Muong,,25,M,Raw,M-MPFF-R-X,66.04,67.5,135,145,-152.5,,145,115,117.5,122.5,,122.5,215,230,240,,240,507.5,SBD,Yes,1
Tyler Kaul,,21,M,Raw,M-MPFF-R-X,83.55,90,137.5,145,152.5,,152.5,87.5,100,-102.5,,100,137.5,147.5,157.5,,157.5,410,SBD,Yes,1
John Borek,,53,M,Raw,M-M3F-R-X,108.91,110,140,147.5,150,,150,-165,165,167.5,,167.5,180,,,,180,497.5,SBD,Yes,1
Corey McManus,,43,M,Raw,M-M1F-R-X,88.95,90,227.5,240,247.5,,247.5,182.5,-192.5,-192.5,,182.5,232.5,,-255,,232.5,662.5,SBD,Yes,1
Tammy Crowley-Deloatch,,52,F,Raw,F-OB-R-T,73.62,75,,,,,,75,80,82.5,85,82.5,,,,,,82.5,B,Yes,1
Janet Martin,,50,F,Raw,F-M3B-R-X,106.78,90+,,,,,,62.5,67.5,-72.5,,67.5,,,,,,67.5,B,Yes,1
Tammy Crowley-Deloatch,,52,F,Raw,F-M3B-R-X,73.62,75,,,,,,75,80,82.5,85,82.5,,,,,,82.5,B,Yes,1
John von Rohr,1947-12-08,71,M,Single-ply,M-M7B-SP-X,121.25,125,,,,,,-145,-145,,,,,,,,,,B,Yes,DQ
Chris Macera,,23,M,Raw,M-OB-R-T,73.84,75,,,,,,142.5,152.5,-160,,152.5,,,,,,152.5,B,Yes,1
Bill Gillespie,,60,M,Unlimited,M-OB-MP-T,149.91,140+,,,,,,425,-455.5,-455.5,,425,,,,,,425,B,Yes,1
John von Rohr,1947-12-08,71,M,Single-ply,M-MPFB-SP-X,121.25,125,,,,,,-145,-145,,,,,,,,,,B,Yes,DQ
Bill Gillespie,,60,M,Unlimited,M-M5B-MP-X,149.91,140+,,,,,,425,-455.5,-455.5,,425,,,,,,425,B,Yes,1
Larry Ulrich,,58,M,Raw,M-M4B-R-X,84.78,90,,,,,,-145,-145,145,,145,,,,,,145,B,Yes,1
John Borek,,53,M,Multi-ply,M-M3B-MP-X,108.91,110,,,,,,-165,165,167.5,,167.5,,,,,,167.5,B,Yes,1
Chuck Ayers,,53,M,Single-ply,M-M3B-SP-X,108.82,110,,,,,,195,-205,205,,205,,,,,,205,B,Yes,1
Demetrius Neal,,42,M,Raw,M-OP-R-T,89.9,90,,,,,,182.5,187.5,195,,195,152.5,,,,152.5,347.5,BD,Yes,1
Trevor Blanchard,,21,M,Raw,M-NP-R-X,92.67,100,,,,,,117.5,125,147.5,,147.5,142.5,157.5,185,,185,332.5,BD,Yes,1
James Mapp,,34,M,Raw,M-NP-R-X,152.95,140+,,,,,,187.5,210,-227.5,,210,227.5,260,-307.5,,260,470,BD,Yes,1
Demetrius Neal,,42,M,Raw,M-M1P-R-X,89.9,90,,,,,,182.5,187.5,195,,195,152.5,,,,152.5,347.5,BD,Yes,1
Janet Martin,,50,F,Raw,F-M3D-R-X,106.78,90+,,,,,,,,,,,142.5,150,155,,155,155,D,Yes,1
