Place,Name,State,WeightClassKg,BodyweightKg,BirthDate,Age,Squat1Kg,Squat2Kg,Squat3Kg,Best3SquatKg,Bench1Kg,Bench2Kg,Bench3Kg,Best3BenchKg,Deadlift1Kg,Deadlift2Kg,Deadlift3Kg,Best3DeadliftKg,TotalKg,Squat4Kg,Bench4Kg,Deadlift4Kg,Event,Equipment,Sex,Division
1,Laura Haering,IL,56,54.1,,41,87.5,97.5,105,105,47.5,-52.5,-52.5,47.5,95,105,112.5,112.5,265,,,120,SBD,Raw,F,Open
1,Melinda Rosin-Seltzer,MO,52,49.5,,64,35,40,42.5,42.5,30,32.5,-35,32.5,75,77.5,80,80,155,,,80.5,SBD,Raw,F,Masters 60-64
1,Laura Haering,IL,56,54.1,,41,87.5,97.5,105,105,47.5,-52.5,-52.5,47.5,95,105,112.5,112.5,265,,,120,SBD,Raw,F,Masters 40-44
1,Sue Heaton,IL,56,55.4,,71,53,55,57.5,57.5,50.5,51,51.5,51.5,62.5,65,67.5,67.5,176.5,,52.5,70,SBD,Raw,F,Masters 70-74
1,Jennifer Heibeck,MO,82.5,77.6,,42,52.5,62.5,67.5,67.5,-45,-45,50,50,97.5,102.5,-105,102.5,220,,,,SBD,Raw,F,Masters 40-44
1,Stacie Korte,MO,90,85,,59,102.5,112.5,117.5,117.5,62.5,67.5,-72.5,67.5,145,152.5,155,155,340,,,,SBD,Raw,F,Masters 55-59
1,Jennifer Hampsten,IL,90+,106.3,,53,47.5,57.5,65,65,40,42.5,47.5,47.5,82.5,90,97.5,97.5,210,,,,SBD,Raw,F,Masters 50-54
1,Brad Stoneking,MO,75,72,,61,137.5,145,155,155,92.5,97.5,-102.5,97.5,165,-172.5,,165,417.5,160,,,SBD,Raw,M,Masters 60-64
1,Brad Trosper,IN,82.5,79.4,,51,175,-185,190,190,117.5,125,-130,125,185,195,-210,195,510,,,,SBD,Raw,M,Masters 50-54
1,Josh McMillian,MO,90,89.2,,40,190,200,207.5,207.5,130,135,140,140,215,227.5,235,235,582.5,,,,SBD,Raw,M,Masters 40-44
2,James Harris,MO,90,85.2,,41,150,167.5,175,175,107.5,115,-120,115,192.5,210,227.5,227.5,517.5,,,,SBD,Raw,M,Masters 40-44
3,Jason Jones,MO,90,87.6,,43,170,180,190,190,107.5,112.5,-117.5,112.5,185,192.5,200,200,502.5,,,,SBD,Raw,M,Masters 40-44
DQ,Steve Boly,MO,90,88.6,,56,137.5,150,155,155,-105,-110,-110,,172.5,182.5,-190,182.5,,,,,SBD,Raw,M,Masters 55-59
1,Grant McCaulley,IL,100,98.2,,40,245,255,265,265,172.5,180,182.5,182.5,280,290,302.5,302.5,750,,,,SBD,Raw,M,Masters 40-44
2,Chad Witkowski,IL,100,98.2,,40,-205,210,220,220,165,175,-182.5,175,205,,,205,600,,,,SBD,Raw,M,Masters 40-44
DQ,Chris Droegemeier,KS,100,97.4,,49,217.5,230,237.5,237.5,125,137.5,145,145,-217.5,-217.5,,,,,,,SBD,Raw,M,Masters 45-49
1,Steven Carpenter,MO,100,95.8,,55,140,150,160,160,130,140,-142.5,140,185,195,205,205,505,,,,SBD,Raw,M,Masters 55-59
1,Greg Elliott,MO,110,109.8,,41,225,230,-240,230,-145,145,-147.5,145,265,275,-277.5,275,650,,,,SBD,Raw,M,Masters 40-44
2,Erick Baker #1,IL,110,104.6,,43,195,200,210,210,130,140,142.5,142.5,230,240,245,245,597.5,,,,SBD,Raw,M,Masters 40-44
1,Doug Pettibone,MO,125,123.4,,51,182.5,192.5,-195,192.5,145,150,155,155,180,192.5,200,200,547.5,,,,SBD,Raw,M,Masters 50-54
2,James Morris #2,TX,125,114.8,,51,115,120,-125,120,130,132.5,140,140,210,220,227.5,227.5,487.5,,,,SBD,Raw,M,Masters 50-54
1,Eric Bell,IL,140+,144,,52,205,-215,,205,115,120,125,125,192.5,205,215.5,215.5,545.5,,,,SBD,Raw,M,Masters 50-54
1,Tabetha Held,MO,75,73.9,,51,151,152.5,165,165,95,101,-105.5,101,142.5,150,158,158,424,170,,,SBD,Wraps,F,Open
1,Tabetha Held,MO,75,73.9,,51,151,152.5,165,165,95,101,-105.5,101,142.5,150,158,158,424,170,,,SBD,Wraps,F,Masters 50-54
2,Donna Glen,MO,75,71.7,,50,117.5,127.5,,127.5,67.5,72.5,-77.5,72.5,150,160,-170,160,360,,,,SBD,Wraps,F,Masters 50-54
1,Terry Held,MO,110,108.4,,51,150,200,,200,190,200.5,205,205,265,285,,285,690,,,,SBD,Wraps,M,Open
1,Frankie Murrieta,MO,75,72.8,,40,160,170,-182.5,170,112.5,120,125,125,175,185,-190,185,480,,127.5,,SBD,Wraps,M,Masters 40-44
1,Alan Glen,MO,82.5,82,,46,200,214,227.5,227.5,155,-160,,155,-250,250,260,260,642.5,,,,SBD,Wraps,M,Masters 45-49
1,Rendon Patterson,IL,100,94.6,,41,195,215,-227.5,215,125,137.5,-142.5,137.5,215,237.5,-252.5,237.5,590,,,,SBD,Wraps,M,Masters 40-44
1,Vance Wallace,MO,100,93.2,,50,182.5,210,222.5,222.5,165,182.5,190,190,182.5,200,-212.5,200,612.5,,191,,SBD,Wraps,M,Masters 50-54
1,Terry Held,MO,110,108.4,,51,150,200,,200,190,200.5,205,205,265,285,,285,690,,,,SBD,Wraps,M,Masters 50-54
1,Charles Ridgeway,IL,125,117.6,,47,227.5,-247.5,-247.5,227.5,165,175,182.5,182.5,200,207.5,215,215,625,,,,SBD,Wraps,M,Masters 45-49
1,Phillip Lake,IL,125,119.2,,55,222.5,232.5,-240,232.5,157.5,172.5,-185.5,172.5,220,225,232.5,232.5,637.5,,,237.5,SBD,Wraps,M,Masters 55-59
1,Demetrius Davis,MO,140,136.8,,43,270,-292.5,-292.5,270,180,192.5,205,205,260,-275,-275,260,735,,210,,SBD,Wraps,M,Masters 40-44
1,Mark Leahy,MO,100,95.8,,59,230,242.5,250,250,185,192.5,-197.5,192.5,230,240,245,245,687.5,,,,SBD,Single-ply,M,Masters 55-59
1,Nancy Riddle,MO,90+,90.8,,53,,,,,-55,55,60,60,,,,,60,,,,B,Raw,F,Masters 50-54
1,Kay Lynne Firsching,MO,90+,91.3,,65,,,,,45,-50,-50,45,,,,,45,,,,B,Raw,F,Masters 65-69
1,Terry Held,MO,110,108.4,,51,,,,,190,200.5,205,205,,,,,205,,,,B,Raw,M,Open
1,Fred Hemann,IL,82.5,78.8,,76,,,,,75,80,-85,80,,,,,80,,,,B,Raw,M,Masters 75-79
1,Vance Wallace,MO,100,93.2,,50,,,,,165,182.5,190,190,,,,,190,,191,,B,Raw,M,Masters 50-54
1,Terry Held,MO,110,108.4,,51,,,,,190,200.5,205,205,,,,,205,,,,B,Raw,M,Masters 50-54
1,Joe Scherer,MO,110,106.4,,63,,,,,100,105.5,-106,105.5,,,,,105.5,,,,B,Raw,M,Masters 60-64
1,Charles Ridgeway,IL,125,117.6,,47,,,,,165,175,182.5,182.5,,,,,182.5,,,,B,Raw,M,Masters 45-49
1,James Morris #2,TX,125,114.8,,51,,,,,130,132.5,140,140,,,,,140,,,,B,Raw,M,Masters 50-54
1,Phillip Lake,IL,125,119.2,,55,,,,,157.5,172.5,-185.5,172.5,,,,,172.5,,,,B,Raw,M,Masters 55-59
1,Donald Norton,MO,140+,176.6,,64,,,,,142.5,147.5,148,148,,,,,148,,150,,B,Raw,M,Masters 60-64
1,Kay Lynne Firsching,MO,90+,91.3,,65,,,,,,,,,102.5,110,120,120,120,,,125,D,Raw,F,Masters 65-69
1,Terry Held,MO,110,108.4,,51,,,,,,,,,265,285,,285,285,,,,D,Raw,M,Open
1,Greg Elliott,MO,110,109.8,,41,,,,,,,,,265,275,-277.5,275,275,,,,D,Raw,M,Masters 40-44
1,Terry Held,MO,110,108.4,,51,,,,,,,,,265,285,,285,285,,,,D,Raw,M,Masters 50-54
1,James Morris #2,TX,125,114.8,,51,,,,,,,,,210,220,227.5,227.5,227.5,,,,D,Raw,M,Masters 50-54
1,Kay Lynne Firsching,MO,90+,91.3,,65,,,,,45,-50,-50,45,102.5,110,120,120,165,,,125,BD,Raw,F,Masters 65-69
1,Vik Khanna,MO,75,72.2,,63,,,,,80,85.5,87.5,87.5,112.5,122.5,-125,122.5,210,,,,BD,Raw,M,Masters 60-64
